<?xml version="1.0" encoding="utf-8"?>
<!-- Generator: Adobe Illustrator 25.1.0, SVG Export Plug-In . SVG Version: 6.00 Build 0)  -->
<svg version="1.1" id="Layer_1" xmlns="http://www.w3.org/2000/svg" xmlns:xlink="http://www.w3.org/1999/xlink" x="0px" y="0px"
	 viewBox="0 0 447 618" style="enable-background:new 0 0 447 618;" xml:space="preserve">
<style type="text/css">
	.st0{fill:#DDEFFF;}
	.st1{fill:#548CE1;}
</style>
<g>
	<path class="st0" d="M279.2,567.1c23.7,2.5,26.1,3.7,50.4,3.7c24.3,0-0.2-6.4-24.6-23.3C280.7,530.5,279.2,567.1,279.2,567.1z"/>
	<path class="st1" d="M329.6,572.3c-18.3,0-24.3-0.7-36.1-2.1c-4-0.5-8.5-1-14.5-1.6c-0.8-0.1-1.4-0.8-1.3-1.6
		c0-0.8,0.9-19.5,10.8-24.4c4.7-2.4,10.6-1.1,17.4,3.6c8.3,5.8,16.9,10.5,23.1,13.9c9,4.9,12.7,6.9,12,9.5
		C340.6,571.6,337.8,572.3,329.6,572.3z M280.8,565.8c5.2,0.6,9.4,1,13,1.5c11.7,1.4,17.6,2.1,35.8,2.1c5,0,7.2-0.3,8.1-0.5
		c-1.5-1.3-5.9-3.7-10.1-6c-6.3-3.4-14.9-8.1-23.4-14c-5.8-4.1-10.6-5.2-14.3-3.4C282.9,548.7,281.2,561.5,280.8,565.8z"/>
</g>
<g>
	<path class="st0" d="M231.2,567.1c-23.7,2.5-26.1,3.7-50.4,3.7c-24.3,0,0.2-6.4,24.6-23.3C229.7,530.5,231.2,567.1,231.2,567.1z"/>
	<path class="st1" d="M180.8,572.3c-8.2,0-11-0.7-11.5-2.7c-0.7-2.6,3.1-4.6,12-9.5c6.2-3.4,14.8-8.1,23.1-13.9
		c6.8-4.7,12.6-5.9,17.4-3.6c9.9,4.9,10.8,23.6,10.8,24.4c0,0.8-0.6,1.5-1.3,1.6c-5.9,0.6-10.5,1.1-14.4,1.6
		C205.1,571.6,199.1,572.3,180.8,572.3z M172.7,568.7c0.9,0.2,3.1,0.5,8.1,0.5c18.2,0,24-0.7,35.8-2.1c3.7-0.4,7.8-0.9,13-1.5
		c-0.4-4.3-2.1-17-9.1-20.5c-3.7-1.8-8.5-0.7-14.3,3.4c-8.5,5.9-17.1,10.6-23.4,14C178.5,565,174.1,567.4,172.7,568.7z"/>
</g>
<g>
	<path class="st0" d="M253.8,365c-1.1,0.9-9.9,181.7-9.9,181.7c-9.9,9.2-49.4,9.2-56.7,0.2c8.4-74.3,11.6-267.9,11.6-267.9
		l109.7-0.4c0,0,1.1,194.5,9.7,269c-7,8.4-44.4,8.4-53.6,0c0,0-9.7-182.2-10.8-183.1V365z"/>
	<path class="st1" d="M292.3,555.4c-11.4,0-23.7-2.1-28.8-6.6c-0.3-0.3-0.5-0.6-0.5-1c-2-38.4-6.7-124.9-9.2-163.5
		c-2.3,38.2-6.6,124.5-8.4,162.6c0,0.4-0.2,0.8-0.5,1c-6.4,6-23.5,8.1-37.2,7.1c-5.1-0.4-17.5-1.8-21.7-7.1
		c-0.3-0.3-0.4-0.7-0.3-1.1c8.2-73.4,11.6-265.8,11.6-267.8c0-0.8,0.7-1.5,1.5-1.5l109.7-0.4c0,0,0,0,0,0c0.8,0,1.5,0.7,1.5,1.5
		c0,1.9,1.2,195.3,9.7,268.8c0,0.4-0.1,0.8-0.3,1.1c-4,4.8-14.9,6.2-21,6.6C296.4,555.3,294.4,555.4,292.3,555.4z M266,546.9
		c5,3.9,18.6,6.2,32.1,5.3c8.9-0.6,15.8-2.5,18.5-5.1c-8-70.8-9.5-248.8-9.6-267l-106.7,0.4c-0.3,18-3.7,195.4-11.6,265.9
		c2.8,2.8,9.9,4.8,19.2,5.5c14.5,1,29.1-1.5,34.5-5.9c0.3-5.7,2.3-48,4.5-89.9c1.4-26.3,2.5-47.3,3.3-62.4c1.2-20.5,1.6-26.6,2-28.7
		h0v-0.4c0-0.6,0.3-1.1,0.9-1.4c0.5-0.3,1.1-0.2,1.6,0.2c0.2,0.2,0.4,0.3,0.6,1.2l0,0c0.4,2.1,0.9,8.2,2.1,28.9
		c0.9,15.2,2.2,36.4,3.7,62.9C263.4,498.5,265.7,541.1,266,546.9z"/>
</g>
<g>
	<path class="st0" d="M236.6,109.5c0,6.7-6.3,15.6-12.6,15.6c-3,0-16.9-0.8-18,5.9c-1.1,6.7,10.6,17.1,10.6,17.1h34.3h34.3
		c0,0,16.7-10.3,15.4-17.1c-1.2-6.6-20.2-5.9-23.2-5.9c-6.3,0-12.6-8.8-12.6-15.6v-16c-1.8,1-7.1,2.8-13.6,2.4
		c-6.5-0.4-12.4-3-14.6-4.2V109.5z"/>
	<path class="st1" d="M285.1,149.6h-68.5c-0.4,0-0.7-0.1-1-0.4c-1.3-1.1-12.2-11.2-11.1-18.5c1.2-7.5,13.8-7.2,18.5-7.2
		c0.4,0,0.7,0,0.9,0c4.6,0,11.1-7.1,11.1-14.1V91.7c0-0.5,0.3-1,0.8-1.3c0.5-0.3,1-0.3,1.5,0c2.1,1.2,7.7,3.6,13.9,4
		c6.1,0.4,11.1-1.3,12.8-2.3c0.5-0.2,1-0.2,1.5,0c0.5,0.3,0.7,0.8,0.7,1.3v16c0,7,6.4,14.1,11.1,14.1l0.8,0
		c9.7-0.1,22.7,0.5,23.9,7.1c1.4,7.6-14.3,17.6-16.1,18.7C285.7,149.5,285.4,149.6,285.1,149.6z M217.2,146.6h67.5
		c6.1-3.8,15.1-11.2,14.4-15.4c-0.3-1.5-2.8-4.9-20.9-4.7l-0.9,0c-7.2,0-14.1-9.6-14.1-17.1V95.7c-2.7,1-7.1,2-12.2,1.7
		c-5.1-0.3-10-1.9-13-3.3v15.4c0,7.4-6.8,17.1-14.1,17.1c-0.2,0-0.6,0-0.9,0c-9.8-0.2-15,1.4-15.5,4.7
		C206.8,135.8,213.9,143.5,217.2,146.6z"/>
</g>
<g>
	<path class="st0" d="M250.7,108c-24.1,0-33-19.3-35.6-46.3c-1.5-8.8,0-29.9,2.2-35.4c4.7,5.2,23.6-2.8,29.4-7.9
		c4.7-4.2,20.1,10.1,28,13.7c6.3,2.9,13.1,5.3,10.7,29.5C282.6,88.7,275,108,250.7,108z"/>
	<path class="st1" d="M250.7,109.5c-29.1,0-35.1-27.1-37.1-47.6c-1.5-8.6-0.1-30.2,2.3-36.1c0.2-0.5,0.6-0.8,1.1-0.9
		c0.5-0.1,1,0.1,1.4,0.5c3.8,4.2,21.7-3.1,27.3-8c4.1-3.6,11.9,1.8,20.3,7.6c3.5,2.4,6.8,4.7,9.3,5.9l0.6,0.3
		c6.3,2.9,13.4,6.2,11,30.7C284.5,85.4,278.4,109.5,250.7,109.5z M218,28.8c-1.7,7.1-2.9,24.9-1.5,32.7c0,0,0,0.1,0,0.1
		c3,30.6,13.8,44.9,34.1,44.9c20.1,0,30-13.4,33.1-44.9c2.2-22.4-3.4-25-9.3-27.7l-0.6-0.3c-2.7-1.3-6.1-3.6-9.8-6.1
		c-5.7-3.9-14.3-9.9-16.6-7.8C242.1,24.5,225.3,32,218,28.8z"/>
</g>
<g>
	<path class="st0" d="M285,45.9c-5.3-2.3-54.8-4.7-70.7,0V6.2c20-6.5,57.5-4.7,70.7,0C286.7,20.2,285,45.9,285,45.9z"/>
	<path class="st1" d="M286.3,48.1l-2-0.9c-4.8-2.1-54.2-4.5-69.6,0.1l-1.9,0.6V5.1l1-0.3c20.6-6.7,58.1-4.8,71.6,0l0.9,0.3l0.1,0.9
		c1.8,14,0.1,38.9,0,39.9L286.3,48.1z M215.8,7.3v36.6c16-3.6,57.1-2.2,67.8,0c0.3-5.9,1.3-24.9,0-36.6
		C270.2,3.1,235.3,1.4,215.8,7.3z"/>
</g>
<path class="st1" d="M237,64.3c-2,0-3.6-1.6-3.6-3.6c0-2,1.6-3.6,3.6-3.6s3.6,1.6,3.6,3.6C240.6,62.7,239,64.3,237,64.3z"/>
<path class="st1" d="M261.7,64.3c-2,0-3.6-1.6-3.6-3.6c0-2,1.6-3.6,3.6-3.6c2,0,3.6,1.6,3.6,3.6C265.4,62.7,263.7,64.3,261.7,64.3z"
	/>
<path class="st1" d="M249.4,78.4c-0.3,0-0.6,0-0.9,0c-0.8,0-1.5-0.8-1.4-1.6c0-0.8,0.7-1.5,1.6-1.4c2.2,0.1,2.7-0.3,2.7-0.3
	c0,0,0-0.2-0.1-0.8c-0.2-0.6-0.3-1.2-0.6-1.8c-0.3-0.9-0.7-2-1.1-3.8c-0.2-0.8,0.3-1.6,1.1-1.8c0.8-0.2,1.6,0.3,1.8,1.1
	c0.4,1.7,0.8,2.7,1.1,3.6c0.2,0.7,0.4,1.3,0.6,2c0.2,0.7,0.6,2.2-0.5,3.4C252.9,78,251.5,78.4,249.4,78.4z"/>
<path class="st1" d="M250.6,93.5c-5.1,0-10.2-2.3-14-6.3c-0.6-0.6-0.5-1.6,0.1-2.1c0.6-0.6,1.6-0.5,2.1,0.1
	c3.4,3.6,8.1,5.6,12.6,5.3c4-0.2,7.5-2.1,9.8-5.2c0.5-0.7,1.4-0.8,2.1-0.3c0.7,0.5,0.8,1.4,0.3,2.1c-2.9,3.9-7.2,6.1-12.1,6.4
	C251.3,93.5,250.9,93.5,250.6,93.5z"/>
<path class="st0" d="M305.8,123.5c5.6-0.2,18.3,1.4,26,12.3c4.6,6.4,14.1,56,17.4,89.1c2.3,22.8-3.1,36.8-9.8,37.8
	c-6.7,0.9-19.6,1.7-30.9,0c0,26.9,6.3,210.5,6.3,210.5s-37.3,4.9-63.7,4.9c-26.4,0-61.5-4.9-61.5-4.9s5.8-193.8,7.9-206.3
	c-10.1-0.1-20-1.4-26.1-5.6c-4.8-3.4-7.2-26.6-8.7-44c-2.6-30.9,1.7-71.2,8.7-78.9c8.9-9.8,13.3-14.5,44.2-14.5c0,0,8.9,2.5,15.8-3
	c1.6-1.2,3-2.9,4.2-5.1c5.7,8.1,24.6,8.1,31,0c0.7,1.6,1.6,2.9,2.6,3.9c6.1,6.2,17.1,4.2,17.1,4.2
	C299.3,123.7,300.4,123.7,305.8,123.5z"/>
<path class="st1" d="M251.2,479.6c-26.2,0-61.4-4.9-61.7-4.9c-0.8-0.1-1.3-0.8-1.3-1.5c0.2-7.7,5.5-182.3,7.7-204.8
	c-11.7-0.3-20-2.2-25.3-5.9c-4.1-2.9-6.9-16-9.3-45.2c-2.5-28.8,1.3-71.4,9.1-80c9.6-10.7,14.8-15,45.3-15c0.1,0,0.3,0,0.4,0.1
	c0.1,0,8.2,2.2,14.5-2.8c1.5-1.2,2.8-2.8,3.9-4.7c0.3-0.4,0.7-0.7,1.2-0.8c0.5,0,1,0.2,1.3,0.6c2.2,3.2,7.2,5.3,13.1,5.4
	c6.6,0.2,12.7-2,15.5-5.5c0.3-0.4,0.9-0.6,1.4-0.6c0.5,0.1,1,0.4,1.2,0.9c0.6,1.3,1.3,2.5,2.3,3.4c5.5,5.6,15.7,3.8,15.8,3.8
	c0.1,0,0.2,0,0.3,0c12.9,0,14,0,19.3-0.2c8.1-0.3,20.1,2.8,27.3,12.9c5.1,7.1,14.6,58.3,17.7,89.8c2.1,21.6-2.5,38.2-11.1,39.4
	c-7.2,1-19,1.6-29.6,0.2c0.2,31.8,6.2,206.9,6.3,208.7c0,0.8-0.5,1.4-1.3,1.5C314.7,474.7,277.4,479.6,251.2,479.6z M191.2,471.8
	c6.7,0.9,36.9,4.7,60,4.7c23.2,0,55.2-3.9,62.1-4.7c-0.6-16.6-6.1-178.8-6.2-207.9c-7.3-1.4-21-6.5-33.8-12.2
	c-2.1,0.7-4.6,1.6-7.5,2.6c-13.5,4.7-34,11.9-47.5,13.1c-5.7,0.5-12.5,1-19.2,1c0,0-0.1,0-0.1,0C196.8,287.9,191.7,455,191.2,471.8z
	 M197.6,265.3c7.1,0.1,14.3-0.5,20.3-1c13.1-1.1,33.4-8.2,46.8-12.9c1.6-0.6,3.1-1.1,4.5-1.6c-8.4-3.9-16-8-20.8-11.5
	c-0.5-0.3-0.7-0.9-0.6-1.5l5.1-31.3c0.1-0.4,0.3-0.8,0.7-1c0.4-0.2,0.8-0.3,1.2-0.2c21.5,6.8,45.4,13.3,49,12.5
	c1.3-2.3,2.1-16.7,2.4-32.5c-0.1-4.9-0.2-9.4,0.1-12.2c0.1-0.8,0.8-1.4,1.6-1.3c0.8,0.1,1.4,0.7,1.4,1.5c0,3.7,0,8-0.1,12.5
	c0.1,3.5,0.2,7.1,0.1,10c0,0.4-0.2,0.7-0.4,1c-0.5,11.6-1.4,21.9-3.2,23.5c-1,0.8-2.5,2.1-27.7-4.9c-9.4-2.6-18.7-5.5-22.4-6.6
	l-4.7,28.7c13.9,9.7,47.5,23.1,57.8,24.7c0,0,0,0,0.1,0c11.4,1.7,24.5,0.8,30.4,0c5-0.7,10.9-12.4,8.5-36.1
	c-3.3-32.8-12.9-82.4-17.1-88.4c-8.6-12-23.1-11.7-24.8-11.7c-5.4,0.2-6.5,0.2-19.3,0.2c-1.4,0.2-12.1,1.7-18.3-4.7
	c-0.7-0.7-1.3-1.5-1.9-2.4c-3.7,3.4-9.8,5.3-16.4,5c-5.9-0.2-11-2-14.1-5.1c-1,1.4-2.2,2.7-3.5,3.7c-6.9,5.6-15.4,3.8-16.9,3.4
	c-30.2,0-34.2,4.4-42.8,14c-6.7,7.3-10.9,47.3-8.3,77.8c0.8,9.8,3.4,39.7,8.1,42.9C177.3,263.4,185.8,265.2,197.6,265.3
	C197.6,265.3,197.6,265.3,197.6,265.3z M245.4,234.2c-0.5,0-1-0.2-1.4-0.6c-0.9-1-0.5-2.4,0-4.4c0.1-0.3,0.2-0.8,0.3-1.2
	c-15.7,0.8-41.1-1.6-41.3-1.6c-0.7-0.1-1.3-0.7-1.4-1.4l-2.6-50.3c0-0.8,0.6-1.5,1.4-1.6c0.8-0.1,1.5,0.6,1.6,1.4l2.5,49
	c5.5,0.5,27.4,2.3,40.9,1.4c0.6,0,1.2,0.2,1.5,0.6c0.8,1,0.5,2.4,0,4.3c-0.1,0.5-0.3,1.2-0.4,1.7c0.2,0.2,0.4,0.5,0.4,0.9
	c0.1,0.8-0.5,1.6-1.3,1.7C245.6,234.2,245.5,234.2,245.4,234.2z"/>
<g>
	<path class="st0" d="M309.8,196.1c-15.4,2.6-24.2,7.7-32.8,17l30.8,7c9.6-1.7,18.3,4.7,27.8-6.4
		C345.3,202.3,325.2,193.5,309.8,196.1z"/>
	<path class="st1" d="M321.7,221.9c-1.7,0-3.4-0.2-5.1-0.3c-2.9-0.3-5.7-0.5-8.5,0c-0.2,0-0.4,0-0.6,0l-30.8-7
		c-0.5-0.1-0.9-0.5-1.1-1c-0.2-0.5,0-1.1,0.3-1.5c9.3-10.1,18.8-15,33.7-17.5l0,0c11.6-1.9,25.1,2.3,29,9c2,3.5,1.3,7.4-1.8,11
		C331.6,220.6,326.6,221.9,321.7,221.9z M311.6,218.3c1.8,0,3.5,0.2,5.2,0.3c6.3,0.6,11.7,1.1,17.6-5.9c2.3-2.7,2.8-5.2,1.4-7.6
		c-3.2-5.7-15.5-9.2-25.9-7.5l0,0c-13.4,2.2-21.8,6.3-30.1,14.7l27.9,6.3C309.1,218.3,310.4,218.3,311.6,218.3z M309.8,196.1
		L309.8,196.1L309.8,196.1z"/>
</g>
<g>
	<path class="st0" d="M254.4,208l-10.9-2.1c-5.2-10-31-12.9-41.9-3.1l1,22.8c6.7,4.7,22.9,2,27.9,1.6l19.2,8.8L254.4,208z"/>
	<path class="st1" d="M249.8,237.5c-0.2,0-0.4,0-0.6-0.1l-18.8-8.6c-0.6,0.1-1.2,0.1-2,0.2c-7,0.8-20.1,2.3-26.4-2.1
		c-0.4-0.3-0.6-0.7-0.6-1.2l-1-22.8c0-0.4,0.2-0.9,0.5-1.2c7.4-6.7,19.7-7.3,28-5.8c7.6,1.4,13.3,4.5,15.8,8.6l10.2,1.9
		c0.8,0.2,1.3,0.9,1.2,1.7l-4.7,28c-0.1,0.5-0.4,0.9-0.8,1.1C250.2,237.4,250,237.5,249.8,237.5z M230.6,225.7c0.2,0,0.4,0,0.6,0.1
		l17.4,8l4.1-24.6l-9.4-1.8c-0.5-0.1-0.8-0.4-1.1-0.8c-1.9-3.6-7.1-6.5-14-7.7c-8-1.5-18.7-0.6-25,4.6l1,21.3
		c5.7,3.2,17.8,1.9,23.8,1.2c1-0.1,1.8-0.2,2.5-0.3C230.5,225.7,230.5,225.7,230.6,225.7z"/>
</g>
<path class="st0" d="M224.6,93.7V75.2c25.5-7,27.7-7,51,0c-0.3,5.1,0,18.3,0,20c0,2.1-10.1,10.9-15.8,12.3c-5.7,1.4-15.5,0.7-18.7,0
	C237.8,106.8,230.3,103.5,224.6,93.7z"/>
<path class="st1" d="M251.1,109.8c-4.3,0-8.4-0.4-10.4-0.8c-1.7-0.4-10.7-2.8-17.4-14.5l-0.2-0.3v-18l-8.7-5.1l1.5-2.6l8.9,5.2
	c25-6.8,27.7-6.8,50.5,0l8.9-5.2l1.5,2.6l-8.8,5.1c-0.2,4.3,0,12.6,0,16.7c0,1.2,0,2,0,2.4c0,3.2-11.2,12.3-16.9,13.7
	C257.6,109.5,254.3,109.8,251.1,109.8z M226.1,93.3c6.2,10.5,14.3,12.5,15.3,12.7c2.9,0.6,12.5,1.4,18,0c5.2-1.3,14-9.2,14.7-10.9
	c0-0.4,0-1.2,0-2.2c-0.1-4-0.2-12,0-16.5c-21.7-6.5-24.1-6.4-47.9,0V93.3z M274.1,95L274.1,95L274.1,95z M275.6,75.2L275.6,75.2z
	 M224.6,75.2L224.6,75.2z"/>
<path class="st0" d="M119.5,487.7c0-5.1-2.8-18.9-1.6-39l34.7-15.4h79.6v20.5c23.8,0.1,75,0.3,89.8,0c18.5-0.4,25.2,9.9,25.2,18.1
	c0,8.3,1.2,57.1,1.2,59.1c2,1,5.6,2,5.8,4.3c0,0.2,0,0.3,0,0.5v13c-6.4,14.2-21,45.1-26.3,55.5c-6.7,13-33.1,12.2-41.8,11
	c-8.7-1.2-156.4-24.4-166.7-26c-10.2-1.6-12-8.3-12-11.4v-12.2c-0.1-0.5-0.1-1,0-1.5c0.3-2.2,1.6-4.7,4.1-7.5l10.2,1.2l30.7-26.4
	l3.9-15l7.1-4.7c-10.1-1.1-22.9-3.1-30.3-3.6C120.7,507.4,119.5,492.8,119.5,487.7z"/>
<path class="st1" d="M296.2,617.5c-4.1,0-7.7-0.3-10.2-0.6c-6.1-0.8-80.2-12.5-129.2-20.1c-19.7-3.1-34.5-5.4-37.5-5.9
	c-12.6-1.9-13.3-11.1-13.3-12.9v-12.2c-0.1-0.6-0.1-1.2,0-1.8l1.5,0.2L106,564c0.3-2.6,1.8-5.4,4.5-8.3l0.5-0.6l10.4,1.2l29.9-25.7
	l3.8-14.5l1.5,0.4l-0.8-1.2l3.7-2.5c-2.6-0.3-5.3-0.7-8-1c-7-0.9-13.7-1.8-18.2-2.1c-14.1-0.9-15.2-17.1-15.2-22
	c0-1.4-0.2-3.6-0.5-6.4c-0.8-7.3-1.9-18.3-1.1-32.7l1.5,0.1l-0.6-1.4l35-15.5h79.9v1.5h1.5v19c25.1,0.1,73.9,0.3,88.3,0
	c11.6-0.2,18,3.6,21.3,6.8c3.5,3.5,5.5,8,5.5,12.8c0,5.5,0.5,29.3,0.9,45.1c0.1,6.2,0.2,11,0.3,13c0.1,0.1,0.3,0.1,0.4,0.2
	c2.2,0.9,5.1,2.2,5.4,5l-1.5,0.1l1.5-0.1c0,0.2,0,0.5,0,0.7v13.3l-0.1,0.3c-6.6,14.6-21,45.2-26.3,55.5
	C324.1,615.1,308.1,617.5,296.2,617.5z M109,571v6.9c0,1.9,0.8,8.4,10.7,9.9c3,0.5,17.8,2.8,37.5,5.9c46,7.2,123,19.3,129.1,20.1
	c8.5,1.2,34.1,1.8,40.2-10.2c5.3-10.2,19.5-40.5,26.1-55.1v-5.7c-5.8,11.6-19.5,38.4-24.7,46.6c-7,10.9-23.8,10.9-41.9,9.8
	c-19.5-1.2-156.4-22.2-166.9-24.1C114.7,574.3,111.2,572.9,109,571z M109,565.6c0.6,4.2,6.9,5.9,10.8,6.6
	c10.5,1.8,147.1,22.8,166.5,24c20.6,1.3,33.7,0.3,39.2-8.4c6.4-10,25.6-48.2,27.1-51.4c0.1-0.2,0.2-0.4,0.2-0.6v-0.3
	c-0.1-0.5-0.6-0.9-1.3-1.3c0.1,1.8-1,3.8-2.9,7.5c-0.5,1-1.1,2.2-1.8,3.5c-3.9,7.7-13.2,25.2-17.6,33.1l-1.3-0.7l1.3,0.8
	c-2.1,3.5-7.3,6.5-10.2,5.9c-9-1-53.9-7.4-76.4-10.6l-36.2-4.2l0.2-1.5l-0.2,1.5l-84.7-9.9l-9.5-1.1c-1.9,2.2-3,4.2-3.2,6V565.6z
	 M225.1,568.4l18,2.1c22.6,3.3,67.7,9.7,76.4,10.6l0.2,0c1.2,0.3,5-1.5,6.8-4.2l-0.2-13c-0.2-12.4-0.5-26.8-0.7-39.8h-52.8
	c-11.3,0-27.6-0.2-43.3-0.5c3.8,0.4,7,0.8,9.1,1c9.1,1,14.5,3.3,16,6.9c0.8,2,0.4,4.2-1.2,6.2c-5.9,7.3-16.3,20.3-20.1,24.9
	C231,565.5,228.7,567.4,225.1,568.4z M328.6,522.8c0.2,13.4,0.5,28.4,0.7,41.3l0.1,7.8c4.8-8.8,11.6-21.7,14.8-28
	c0.7-1.4,1.3-2.5,1.8-3.5c3.1-6,3.1-6,1.3-8.3l1.2-0.9H347c0-0.6-0.1-6.5-0.3-13.9c-0.4-15.8-0.9-39.6-0.9-45.2
	c0-2.3-0.6-6.8-4.6-10.7c-4.2-4.1-10.8-6.2-19.1-6c-14.7,0.3-65.2,0.1-89.9,0l-1.5,0v-19.1l-25.8,18.4V474
	c28.6,0.4,83.8,1.2,97.8,1.2c18.8,0,25.5,12.6,25.5,24.4C328.3,502.4,328.4,510.3,328.6,522.8L328.6,522.8z M206.7,566.3
	c16.9,1.1,20.4-0.8,24.3-5.5c2.2-2.6,6.6-8,11-13.5l-0.4-0.3c0.8-0.9,0.6-1.4,0.6-1.6c-0.5-1.3-3.2-2.8-7.5-3.4
	c-6.6-0.8-64-7.4-81.7-9l-27.7,23.8L206.7,566.3z M121.9,557.9L121.9,557.9L121.9,557.9z M154.5,530.1c18.9,1.8,74.2,8.1,80.6,8.9
	c3.8,0.5,8.3,2,9.7,4.8c2.3-2.9,4.5-5.6,6.3-7.8c0.9-1.1,1.2-2.2,0.8-3.1c-0.5-1.2-2.8-4-13.6-5.1c-6.8-0.7-24.6-2.8-38.4-4.5
	c-5.8-0.1-12-0.2-14.3-0.2c-4.6,0-7.8-1.4-10.4-2.8c-6.6-0.8-12.7-1.6-17.7-2.2L154.5,530.1z M327.1,522.8L327.1,522.8z
	 M176.5,517.5c2.4,1.3,5.1,2.6,9.2,2.6c2.3,0,8.6,0.1,14.4,0.2l0,1.5l0-1.5l8.1,0.1c20.2,0.4,47.9,0.8,64.6,0.8h52.7
	c-0.2-11.6-0.2-19-0.2-21.8c0-5-1.6-21.4-22.5-21.4c-14,0-69.2-0.7-97.8-1.2v2.4l-0.2,0.3c-0.7,1.3-17.2,30.7-26,33.8
	c-1.1,0.5-3.1,0.7-8.1,0.4c0.8,0.5,1.5,0.9,2.2,1.3C174.1,516.1,175.3,516.9,176.5,517.5z M175.8,518.8l0.7-1.3L175.8,518.8z
	 M160.7,515.5c2.6,0.3,5.4,0.7,8.4,1c-1.6-1-3.4-2-5.4-3L160.7,515.5z M119.3,450.3c-0.7,13.5,0.4,23.8,1.1,30.8
	c0.3,2.9,0.5,5.1,0.5,6.7c0,16.9,9.5,18.8,12.4,19c4.7,0.3,11.4,1.2,18.4,2.1c4,0.5,8.2,1.1,12,1.5l-0.2,1.5l0.2-1.5
	c10.5,1.2,13.1,0.8,13.7,0.5l0.2-0.1c5-1.7,16.1-17.7,24.2-32.1v-3.2h1.5h-1.5v-20.3L119.3,450.3z M203.4,453.8L203.4,453.8z
	 M124.2,447.6l78.8,4.7l24.5-17.5h-74.6L124.2,447.6z"/>
<g>
	<path class="st0" d="M36.7,223.7c3.5-1.2,5.9-7.5,6.7-11.8l-6.3-8.7l-11.8,3.5C27.9,212.8,33.9,224.6,36.7,223.7z"/>
	<path class="st1" d="M36.5,225.2c-2.3,0-6.3-3.4-12.6-17.9l-0.7-1.5l14.5-4.3l7.3,10l-0.1,0.6c-0.7,4.1-3.2,11.5-7.7,13
		C37,225.2,36.8,225.2,36.5,225.2z M27.4,207.7c3.8,8.3,7.6,14.1,9,14.5c2.4-0.9,4.6-5.7,5.5-10l-5.3-7.3L27.4,207.7z"/>
</g>
<path class="st0" d="M161.7,370.7l-24.4,4.7L125,347l5.9-4.7h1.2l15-12.2l9.5-2.4L161.7,370.7z"/>
<path class="st1" d="M137.5,376.9l-0.3-1.5l-1.4,0.6l-12.7-29.4l7.2-5.8h1.2l14.8-12.1l11.4-2.9l5.5,46L137.5,376.9z M133.7,342.9
	l4.8,30.7l21.5-4.2l-4.8-39.9l-7.5,1.9L133.7,342.9z M126.8,347.5l7.1,16.5l-3.1-19.7L126.8,347.5z"/>
<path class="st0" d="M19.4,201.2c-3.2-3.5-18.5-32.7-17.3-37c0-2,1.9-6,5.5-6.2c0.7,0,1.5-0.1,2.4-0.1c5.1,0,9.5-1.2,17.7,4.3
	s22.1,23.6,25.2,28.8c2.3,3.8,3.4,7.6,3.4,10.2c0,0.9-0.1,1.7-0.3,2.4c-0.8,2.4-5.9,8.3-15.4,8.7C31.2,212.6,22.6,204.8,19.4,201.2z
	"/>
<path class="st1" d="M40,213.8c-10.9,0-20-9.6-21.7-11.6c-2.7-3-18.7-32.2-17.7-38.2c0.1-2.7,2.4-7.3,6.9-7.6l0,0
	c1.4-0.1,3.1-0.1,4.7-0.1c4.4-0.2,8.9-0.3,16.3,4.6c8.5,5.7,22.4,23.9,25.7,29.2c2.2,3.6,3.6,7.6,3.7,11l-1.5,0l1.5,0
	c0,1.1-0.1,2.1-0.4,2.9c-1,2.9-6.5,9.3-16.7,9.7C40.5,213.8,40.2,213.8,40,213.8z M5.6,160.3c-1.3,1.1-2,3-2,3.9v0.2l-0.1,0.2
	c-0.2,0.9,1,5.7,7,17.9c4.4,8.8,8.7,16.3,10,17.8c1,1.1,10.1,11,20.1,10.5c4.6-0.2,8.1-1.8,10.5-3.6c-4.6,1.3-10.5-0.1-17.1-2.2
	c-8.9-2.7-13.8-12.1-17-18.3c-0.7-1.4-1.4-2.7-2-3.6C14.9,182.9,5.9,167.9,5.6,160.3z M8.5,159.4c-0.5,2.6,3.6,13.3,9,22.1
	c0.6,1,1.3,2.3,2.1,3.8c3,5.8,7.5,14.5,15.2,16.8c9.8,3,16.1,4.4,20-1.3c-0.2-2.7-1.4-6.1-3.2-9c-3.1-5-16.7-22.9-24.8-28.3
	c-6.6-4.4-10.5-4.3-14.6-4.1C11,159.4,9.7,159.4,8.5,159.4z M7.6,157.9l0-0.2L7.6,157.9z"/>
<path class="st0" d="M19.8,244.2c-2-4.3-4.7-10.6-2.4-17.7c1-0.9,2.2-1.7,3.5-2.3c0.7-0.3,1.5-0.6,2.4-0.9c6.7-2.2,15.7-2,21.3-2.3
	c7.5-0.4,19.7-1.6,28.8-0.8c9.1,0.8,22.5,11.8,31.1,17.7c8.7,5.9,38.6,29.9,49.7,40.2s23.2,22.5,23.2,25.6c0,3.2-2.8,5.5-10.6,15.4
	c-7.9,9.9-47.7,33.9-57.1,36.3c-9.5,2.4-15.4-0.4-22.1-3.5c-6.7-3.2-20.1-26.4-25.6-35.5C56.4,307.2,21.8,248.5,19.8,244.2z"/>
<path class="st1" d="M102.9,357.7c-6.2,0-10.9-2.2-15.9-4.6c-5.9-2.8-15.6-18.3-24.2-32.7c-0.8-1.2-1.4-2.4-2-3.3
	c-5.4-8.9-40.2-67.9-42.2-72.3c-1.9-4.1-5-11-2.4-18.8l0.1-0.4l0.3-0.3c1.1-1,2.4-1.8,3.9-2.6l0,0c0.8-0.4,1.6-0.7,2.5-1
	c5.6-1.8,12.6-2.1,18.2-2.2c1.2,0,2.4-0.1,3.4-0.1c1.6-0.1,3.4-0.2,5.3-0.3c7.3-0.5,16.4-1.1,23.7-0.5c7.7,0.7,18.1,8.1,26.4,14.1
	c2,1.4,3.8,2.8,5.5,3.9c8.9,6.1,38.7,30,49.8,40.3c23.7,22,23.7,25.6,23.7,26.7h-1.5h1.5c0,2.9-1.7,5-6.2,10.5
	c-1.3,1.6-2.9,3.5-4.8,5.8c-8.2,10.3-48.6,34.4-57.9,36.8C107.4,357.4,105,357.7,102.9,357.7z M18.7,227.3c-2,6.5,0.7,12.4,2.4,16.3
	c1.9,4.1,36.3,62.4,42.1,72c0.6,1,1.3,2.1,2,3.4c5.6,9.4,17.4,28.9,22.9,31.5c6.5,3.1,12.1,5.7,21.1,3.4c8.7-2.2,46.8-25,55.8-35.1
	c-19,12.9-49.6,20.6-55.3,21.1c-0.1,0-0.3,0-0.4,0c-11.3,0-42.5-35.1-45.8-39.2C58.3,294.1,26,248,20,226.4
	C19.5,226.7,19.1,227,18.7,227.3z M22.7,225c2.8,10.6,12.7,27.9,20.6,40.7c9.8,15.7,19.6,29.5,22.5,33.1
	c7.5,9.4,35.8,38.7,43.6,38.1c9-0.8,57.1-14.2,66.4-33.4c-0.6-1.8-5.8-8.6-22.7-24.3c-10.8-10-40.8-34.2-49.5-40.1
	c-1.7-1.2-3.6-2.5-5.6-3.9c-8-5.8-18-12.9-24.9-13.5c-7-0.6-16,0-23.2,0.5c-2,0.1-3.8,0.2-5.4,0.3c-1.1,0.1-2.2,0.1-3.5,0.1
	c-5.4,0.2-12.2,0.4-17.4,2.1C23.4,224.8,23.1,224.9,22.7,225z M20.9,224.1L20.9,224.1L20.9,224.1z"/>
<path class="st0" d="M228.1,321.2c-11.6,1.6-11,1.6-19.7,21.7c-3.1,1.3-9.4,3.2-15.2,3c-1.9-0.1-3.8-0.4-5.5-1
	c3.8-6.6,12-21,14.9-26.2c3.6-6.5,11.6-10,17.4-10.4c5.8-0.3,55.2-4.2,63-4.9c7.8-0.6,8.7,2.3,8.7,7.1c-0.6,1-4.8,5.5-6.5,5.5
	C270.1,317.2,237.4,319.9,228.1,321.2z"/>
<path class="st1" d="M194.1,347.3c-0.3,0-0.7,0-1,0l0.1-1.5l-0.1,1.5c-2.2-0.1-4.2-0.5-6-1.1l-1.6-0.6l0.9-1.5
	c3.9-6.8,12.1-21.1,14.8-26.2c3.8-6.8,12.2-10.8,18.7-11.1c5.9-0.3,55.8-4.3,63-4.9c4-0.3,6.6,0.2,8.2,1.7c1.8,1.7,2.1,4.3,2.1,6.9
	v0.5l-0.3,0.4c0,0.1-4.8,6.1-7.6,6.2c-15.7,1.2-47.9,3.9-57.1,5.2c-10.1,1.4-10.1,1.4-17.2,17.6l-1.6,3.7l-0.6,0.2
	C205.4,345.7,199.6,347.3,194.1,347.3z M279.5,311.5c-1.7,0-3.7,0.2-5.6,0.5c-2.3,0.3-8.5,0.9-16.4,1.6c-16.5,1.5-41.3,3.7-46.1,5.2
	c-6.1,1.9-10.8,12.8-16,25.6c4.6-0.2,9.3-1.6,11.8-2.6l1.1-2.6c7.4-17.1,7.7-17.8,19.5-19.4c9-1.3,39.8-3.8,56-5.1
	c0-1-0.2-1.7-0.7-2.2C282.5,311.7,281.1,311.5,279.5,311.5z M189.9,343.9c0.7,0.2,1.5,0.3,2.3,0.4c5.9-14.6,10.7-26,18.3-28.4
	c5-1.6,29.1-3.7,46.7-5.3c7.8-0.7,14-1.2,16.2-1.5c5.1-0.7,9.6-1.1,11.9,1.3c0.8,0.8,1.3,1.8,1.5,3.1c1.2-1,2.7-2.5,3.4-3.4
	c0-2.3-0.4-3.5-1.1-4.2c-1-0.9-2.9-1.2-6-0.9c-7.2,0.6-57.2,4.5-63,4.9c-5.5,0.3-13,3.8-16.2,9.6C201.3,324,194.1,336.6,189.9,343.9
	z M285.2,314.5L285.2,314.5L285.2,314.5z"/>
<path class="st0" d="M99,416c-2.4-2.4-2.4-7.1-2.8-13.8c-0.1-1.1,0.1-2.3,0.4-3.5c1.5-6.6,7.9-15.3,17.8-21.3
	c3-0.8,12.1-2.7,24.4-3.9c15.4-1.6,31.1-16.9,34.7-20.1c3.5-3.2,13.8-11.4,25.6-11.8c11.8-0.4,92.2-10.2,110.3-11.8
	c3.5-0.3,6.6-0.3,9.5-0.1c4,0.3,7.5,0.9,10.6,1.9c0,0,0,0,0,0c4.1,1.2,7.6,3,10.6,4.8c0,0,0,0,0,0c1.7,1,3.2,2,4.7,3
	c7.9,5.1,81.6,59.5,89.8,65.4c8.3,5.9,11.4,10.6,9.9,15c-1.6,4.3-13.4,37.8-18.1,48.1s-11,10.6-16.2,8.3
	c-5.1-2.4-109.2-68.2-120.2-75.7c-3.8-2.6-7.7-3.7-11.5-3.9c-17.7,13.1-56,41.1-67.3,47.7c-14.2,8.3-45.3,4.7-53.2,4.7
	c-7.9,0-19.3-8.3-27.2-13c-7.9-4.7-21.7-4.7-20.9-13.9C103.6,421.2,101.1,418.1,99,416z"/>
<path class="st1" d="M415.3,478.6c-2.2,0-4.1-0.6-5.6-1.3c-5.7-2.6-111-69.4-120.4-75.8c-3.1-2.1-6.4-3.3-10.2-3.6
	c-18.6,13.8-55.8,40.9-67,47.4c-12.1,7-35.4,5.8-47.9,5.2c-2.6-0.1-4.7-0.2-6-0.2c-6.9,0-15.7-5.5-23.5-10.4c-1.6-1-3.1-2-4.5-2.8
	c-2.4-1.4-5.5-2.5-8.5-3.4c-6-2-12.7-4.2-13.1-10.4c-5.5-0.9-8.1-3.5-10-5.5l-0.5-0.6c-2.5-2.5-2.8-6.8-3.1-12.8l-0.1-2
	c-0.1-1.2,0.1-2.6,0.4-4c1.8-7.9,9.1-16.6,18.5-22.2l0.2-0.1l0.2-0.1c3.2-0.8,12.4-2.7,24.7-4c13.7-1.4,28.1-14.5,32.8-18.8
	c0.4-0.4,0.7-0.7,1-0.9c4-3.5,14.5-11.8,26.6-12.2c6.8-0.2,37.4-3.7,64.4-6.8c19.7-2.2,38.2-4.4,45.8-5c3.4-0.3,6.6-0.3,9.7-0.1
	c3.9,0.3,7.5,0.9,11,1.9c0,0,0,0,0,0c3.7,1.1,7.1,2.7,10.9,4.9c0,0,0,0,0,0c1.7,1,3.3,2,4.8,3c5.3,3.5,39.9,28.8,65.1,47.3
	c12.3,9,22,16.2,24.8,18.1c5.6,4,12.8,10.1,10.4,16.7c-0.2,0.6-0.6,1.7-1.1,3.2c-3.5,9.9-12.9,36.1-17,45l-1.4-0.6l1.4,0.6
	C424.1,476.4,419.4,478.6,415.3,478.6z M278.7,394.8c4.5,0.3,8.6,1.7,12.2,4.2c10.7,7.2,115.1,73.3,120,75.5
	c5.4,2.5,9.8,0.5,13.3-5.7c-15.7-3.9-71.3-40.1-76.3-43.7l-1.7-1.3c-30.1-22.3-51.5-35.9-63.7-40.3l0,0c-2.4-0.9-4.4-1.4-5.9-1.5
	c-1.9-0.1-4.8-0.1-8.4,0.2l-0.1-1.5l0.1,1.5c-3.6,0.3-8,0.8-13.3,1.5c-19,2.5-44.9,7.2-63.7,10.6c-8.1,1.5-15,2.7-19.4,3.4
	c-9.2,1.5-19.2,1.2-30.7,1c-12.6-0.3-26.9-0.7-43.2,1.3c-0.1,0.8-0.2,1.5-0.1,2.1l0.1,2c0.3,5.3,0.5,9.1,2.2,10.8
	c0.2,0.2,0.4,0.4,0.6,0.6c2,2,4.2,4.3,9.5,4.8l-0.1,1.5l0.1-1.5c0.7,0.1,1.4,0.1,2.2,0.1c36,0,54.2-2.1,63.2-3.9
	c16.1-4,79.8-18.5,85.6-19.3c0.9-0.1,2.1-0.4,3.5-0.7C268.3,395.6,273.4,394.4,278.7,394.8l-0.1,1.5L278.7,394.8z M284.7,381.1
	c12.6,4.9,33.9,18.5,63.3,40.3l1.7,1.3c8.6,6.3,63.8,41.4,75.8,43.4c4.3-9.6,13.1-34.3,16.5-43.8c0.5-1.5,0.9-2.6,1.1-3.2
	c0.8-2.2,0.7-6.1-9.3-13.2c-2.7-2-12.5-9.1-24.8-18.1c-25.2-18.5-59.8-43.8-65-47.2c-1.4-0.9-2.8-1.8-4.4-2.7
	c-3.2,0.8-20.2,12.6-28.5,18.4c-4.8,3.4-8.6,6-10.1,6.9c-0.6,0.4-1.3,0.7-2.1,1.1C294.2,366.6,287,370.4,284.7,381.1z M111.6,423.4
	c0.6,3.6,4.7,5.2,11,7.3c3.2,1,6.4,2.1,9.1,3.7c1.4,0.9,2.9,1.8,4.6,2.8c7.1,4.4,15.8,10,21.9,10c1.4,0,3.5,0.1,6.2,0.2
	c12.2,0.6,35,1.8,46.3-4.8c10.5-6.1,44.2-30.6,63.5-44.9c-3.2,0.3-6.2,0.9-8.7,1.5c-1.5,0.3-2.7,0.6-3.8,0.8
	c-5.2,0.7-67.4,14.8-85.4,19.3c-9.1,1.8-27.5,4-63.8,4C112.1,423.4,111.8,423.4,111.6,423.4z M115,378.8
	c-8.7,5.3-14.2,12.5-16.3,18.1c16-1.8,30-1.5,42.4-1.2c11.4,0.3,21.3,0.5,30.2-0.9c4.3-0.7,11.3-2,19.3-3.4
	c18.5-3.4,43.8-7.9,62.8-10.5c2.3-13.9,12.9-25.7,29.1-32.5c8.7-3.7,17.7-9.4,24.9-13.9c2.1-1.3,4-2.5,5.6-3.5
	c-1.1,0-2.2,0.1-3.3,0.2c-7.6,0.7-26.1,2.8-45.8,5c-28.4,3.2-57.7,6.6-64.7,6.8c-11.1,0.4-20.9,8.1-24.7,11.4
	c-0.3,0.2-0.6,0.5-1,0.9c-4.9,4.5-19.8,18.1-34.5,19.6C127.2,376.1,118.2,377.9,115,378.8z M319.1,331.1c-1.9,0.7-5.7,3.1-10.2,5.9
	c-6.9,4.4-16.4,10.4-25.3,14.2c-14.9,6.3-24.7,16.9-27.1,29.3c3.9-0.5,7.4-0.9,10.3-1.1c2.9-14,20-25.4,24.7-27.4
	c2.2-0.9,8.5-5,15.3-9.2c9.1-5.8,14.5-9.1,17.9-10.9C322.9,331.4,321,331.2,319.1,331.1z M274.5,379c0.9,0,1.7,0,2.3,0.1
	c1.4,0.1,3.1,0.5,5.1,1.1c2.6-11.8,10.8-16.1,15.8-18.7c0.7-0.4,1.4-0.7,2-1.1c1.3-0.8,5.3-3.5,9.9-6.7c15.2-10.6,22.9-15.7,27-17.7
	c-2.4-1.2-4.8-2.2-7.2-2.9c-2.2,0.5-13.4,7.6-20.9,12.3c-7.2,4.5-13.3,8.4-15.7,9.5c-5.6,2.4-19.8,12.9-22.8,24.4
	C271.7,379,273.2,379,274.5,379z M339.4,337.5L339.4,337.5l0.4-0.7L339.4,337.5z M329.4,332.9L329.4,332.9z M329.5,331.4
	L329.5,331.4L329.5,331.4L329.5,331.4z M318.9,329.5L318.9,329.5L318.9,329.5z"/>
<path class="st0" d="M150.2,359.7c-14.2,2-13.4,2-24,26.4c-3.7,1.6-11.4,3.9-18.5,3.6c-2.4-0.1-4.6-0.5-6.7-1.3
	c4.6-8,14.7-25.6,18.1-31.9c4.3-7.9,14.2-12.2,21.3-12.6c7.1-0.4,67.4-5.1,76.8-5.9c9.5-0.8,10.6,2.8,10.6,8.7
	c-0.8,1.2-5.9,6.7-7.9,6.7C201.5,354.9,161.6,358.2,150.2,359.7z"/>
<path class="st1" d="M108.8,391.3c-0.4,0-0.8,0-1.2,0l0.1-1.5l-0.1,1.5c-2.7-0.1-5.1-0.6-7.2-1.4l-1.6-0.6l0.9-1.5
	c4.8-8.3,14.7-25.6,18.1-31.9c4.5-8.2,14.7-13,22.5-13.4c7.2-0.4,68.1-5.2,76.8-5.9c4.8-0.4,7.9,0.2,9.8,2c2,1.9,2.5,4.6,2.5,8.1
	v0.5l-0.3,0.4c-0.4,0.6-5.9,7.3-9.1,7.4c-19.2,1.5-58.4,4.7-69.6,6.3c-12.6,1.7-12.6,1.7-21.2,21.6l-1.9,4.4l-0.6,0.2
	C122.5,389.3,115.5,391.3,108.8,391.3z M212.9,347.6c-2.1,0-4.5,0.3-6.9,0.6c-2.8,0.4-10.3,1-20,1.9c-20.1,1.8-50.4,4.5-56.2,6.3
	c-7.7,2.4-13.4,15.9-19.9,31.8c5.9-0.2,11.9-2,15.2-3.3l1.4-3.3c8.9-20.6,9.3-21.4,23.5-23.4c11-1.5,48.9-4.7,68.6-6.2
	c0.1-1.5-0.2-2.5-0.9-3.2C216.8,347.9,215.1,347.6,212.9,347.6z M103.2,387.7c1.1,0.3,2.2,0.5,3.5,0.6c7.2-17.8,13-31.7,22.2-34.6
	c6.1-1.9,35.5-4.5,56.9-6.4c9.6-0.8,17.1-1.5,19.8-1.9c6.2-0.8,11.5-1.3,14.3,1.5c1,1.1,1.6,2.5,1.7,4.2c1.6-1.3,3.8-3.5,4.8-4.7
	c0-2.5-0.3-4.4-1.5-5.5c-1.3-1.2-3.7-1.6-7.5-1.2c-8.8,0.7-69.7,5.5-76.9,5.9c-6.9,0.4-16.1,4.6-20,11.8
	C117.2,363.2,108.2,378.9,103.2,387.7z"/>
</svg>
