<?xml version="1.0" encoding="utf-8"?>
<!-- Generator: Adobe Illustrator 25.1.0, SVG Export Plug-In . SVG Version: 6.00 Build 0)  -->
<svg version="1.1" id="Layer_1" xmlns="http://www.w3.org/2000/svg" xmlns:xlink="http://www.w3.org/1999/xlink" x="0px" y="0px"
	 viewBox="0 0 892 530" style="enable-background:new 0 0 892 530;" xml:space="preserve">
<style type="text/css">
	.st0{fill:#D36900;}
	.st1{fill:#FFD3B4;}
</style>
<g id="locked">
	
		<rect x="591" y="-27.8" transform="matrix(9.496433e-02 -0.9955 0.9955 9.496433e-02 264.0454 837.2001)" class="st0" width="3" height="602.3"/>
	<g>
		<path class="st1" d="M601.8,380c-13.9,1.4-15.3,2.2-29.6,2.2s0.1-3.7,14.4-13.7C601,358.5,601.8,380,601.8,380z"/>
		<path class="st0" d="M572.2,383.7c-4.7,0-6.9-0.3-7.3-2c-0.5-2,1.6-3.1,7.3-6.2c3.7-2,8.7-4.7,13.6-8.2c4.2-2.9,7.9-3.7,10.9-2.2
			c6.1,3.1,6.6,14.4,6.6,14.8c0,0.8-0.6,1.5-1.3,1.5c-3.8,0.4-6.6,0.7-9.1,1C586.3,383.3,582.7,383.7,572.2,383.7z M569.1,380.6
			c0.7,0.1,1.7,0.1,3.1,0.1c10.3,0,13.9-0.4,20.3-1.2c2.2-0.3,4.6-0.5,7.7-0.9c-0.4-3.4-1.6-9.2-4.9-10.9c-2-1-4.6-0.3-7.9,1.9
			c-5,3.5-10.1,6.3-13.9,8.3C572,378.9,570.3,379.9,569.1,380.6z"/>
	</g>
	<g>
		<path class="st1" d="M630,380c13.9,1.4,15.3,2.2,29.6,2.2s-0.1-3.7-14.4-13.7C630.8,358.5,630,380,630,380z"/>
		<path class="st0" d="M659.6,383.7c-10.5,0-14.1-0.4-20.7-1.2c-2.5-0.3-5.3-0.6-9.1-1c-0.8-0.1-1.4-0.8-1.3-1.5
			c0-0.5,0.5-11.8,6.6-14.8c3-1.5,6.7-0.8,10.9,2.2c4.9,3.4,9.9,6.2,13.6,8.2c5.7,3.1,7.8,4.3,7.3,6.2
			C666.5,383.4,664.3,383.7,659.6,383.7z M631.6,378.7c3.1,0.3,5.5,0.6,7.7,0.9c6.5,0.8,10,1.2,20.3,1.2c1.4,0,2.4,0,3.1-0.1
			c-1.2-0.7-2.9-1.7-4.5-2.5c-3.7-2-8.8-4.8-13.9-8.3c-3.3-2.3-5.9-2.9-7.9-1.9C633.2,369.4,632,375.3,631.6,378.7z"/>
	</g>
	<g>
		<path class="st1" d="M615.8,231.6c0.6,0.6,5.7,134.1,5.7,134.1c5.7,6,28.5,6,32.7,0.1c-4.5-48.3-6.3-174.2-6.7-174.2l-63.2-0.3
			c0,0-0.6,126.5-5.6,175c4.1,5.4,25.6,5.4,30.9,0C609.6,366.3,615.1,232.1,615.8,231.6z"/>
		<path class="st0" d="M593.6,371.8c-1,0-2,0-2.9-0.1c-3.8-0.2-10.6-1.2-13.2-4.5c-0.2-0.3-0.3-0.7-0.3-1.1
			c4.9-47.9,5.6-173.6,5.6-174.9c0-0.4,0.2-0.8,0.4-1.1c0.3-0.3,0.7-0.4,1.1-0.4l0,0l63.2,0.3c1.5,0,1.5,1.2,1.6,2.9
			c0,1,0.1,2.4,0.1,4.3c0.1,3.7,0.2,9.1,0.4,15.6c0.9,37.9,2.7,116.8,6.1,152.7c0,0.4-0.1,0.7-0.3,1c-2.6,3.6-9.6,4.6-13.5,4.9
			c-7.6,0.5-17.6-0.8-21.5-4.9c-0.3-0.3-0.4-0.6-0.4-1c-0.9-24.3-2.9-74.8-4.3-106.4c-1.5,31.7-3.6,82.6-4.6,107
			c0,0.4-0.2,0.7-0.4,1C607.5,370.5,600.2,371.8,593.6,371.8z M580.3,365.8c1.6,1.5,5.7,2.7,10.6,3c7.2,0.5,14.5-0.9,17.3-3.1
			c0.2-4.8,1.5-35.8,2.8-66.5c0.8-19.5,1.6-35.1,2.1-46.3c1.1-21.8,1.1-21.8,1.9-22.4c0.6-0.4,1.4-0.4,1.9,0.2
			c0.6,0.6,0.8,0.8,3.5,68.3c1.2,30.6,2.4,61.5,2.6,66.2c3,2.6,10.9,4.1,18.7,3.6c5.2-0.4,9.3-1.6,10.9-3.3
			c-3.3-36.2-5.2-114.5-6-152.3c-0.2-9.3-0.4-17-0.5-20l-60.3-0.3C585.7,207.2,584.9,320.2,580.3,365.8z M609.6,366.3L609.6,366.3
			L609.6,366.3z"/>
	</g>
	<g>
		<path class="st1" d="M622.2,88.6c0,3.9,3.7,6.9,7.4,6.9c1.8,0,9.9-0.5,10.5,3.5s-6.2,12.3-6.2,12.3h-20.1h-20.1
			c0,0-9.8-8.3-9.1-12.3c0.7-3.9,11.8-3.5,13.6-3.5c3.7,0,7.4-2.9,7.4-6.9v-9.4c1.1,0.6,4.2,1.7,8,1.4c3.8-0.2,7.3-1.7,8.6-2.5
			L622.2,88.6L622.2,88.6z"/>
		<path class="st0" d="M633.9,112.8h-40.2c-0.4,0-0.7-0.1-1-0.4c-1.7-1.5-10.4-9.1-9.6-13.7c0.8-4.4,8.7-4.8,14.6-4.7h0.5
			c2.8,0,5.9-2.2,5.9-5.4v-9.4c0-0.5,0.3-1,0.7-1.3c0.5-0.3,1-0.3,1.5,0c0.8,0.4,3.6,1.5,7.2,1.2c3.4-0.2,6.7-1.5,7.9-2.3
			c0.5-0.3,1-0.3,1.5,0s0.8,0.8,0.8,1.3v10.5c0,3.1,3.1,5.4,5.9,5.4h0.5c2.9-0.1,10.7-0.2,11.4,4.8c0.7,4.4-5.3,12-6.5,13.5
			C634.8,112.6,634.3,112.8,633.9,112.8z M594.3,109.8h38.9c2.6-3.3,5.8-8.4,5.4-10.6c-0.2-1.1-1.7-2.4-8.4-2.2c-0.2,0-0.4,0-0.6,0
			c-4.7,0-8.9-3.9-8.9-8.4v-8.1c-1.8,0.7-4.3,1.5-7,1.6c-2.6,0.2-4.9-0.2-6.6-0.7v7.2c0,5-4.6,8.4-8.9,8.4h-0.5
			c-10.9-0.1-11.6,2-11.6,2.3C585.7,101.1,590,106.1,594.3,109.8z"/>
	</g>
	<path class="st1" d="M644.4,213.5c-4.4,0-8-1.7-10.4-3.4c-3.8-2.6-6.8-6.3-8.1-10.1c-0.3-0.8,0.1-1.6,0.9-1.9
		c0.8-0.3,1.6,0.1,1.9,0.9c2,5.9,10,13.3,19.1,11c0.8-0.2,1.6,0.3,1.8,1.1s-0.3,1.6-1.1,1.8C647.1,213.3,645.7,213.5,644.4,213.5z"
		/>
	<path class="st1" d="M587.9,213.5c-1.3,0-2.7-0.2-4.2-0.5c-0.8-0.2-1.3-1-1.1-1.8s1-1.3,1.8-1.1c9.1,2.2,17.1-5.1,19.1-11
		c0.3-0.8,1.1-1.2,1.9-0.9c0.8,0.3,1.2,1.1,0.9,1.9c-1.3,3.8-4.3,7.5-8.1,10.1C595.9,211.7,592.3,213.5,587.9,213.5z"/>
	<g>
		<path class="st1" d="M613,80.5c12.9,0,17.7-10.3,19.1-24.8c-1.4-3.2-1.7-9.1-1.7-11.6c-2.5,2.8-14.9,1.6-18-1.1
			c-2.5-2.3-7.9-5.1-12.1-3.1c-3.4,1.6-5.7,11.2-6.4,15.8C595.1,70.2,600,80.5,613,80.5z"/>
		<path class="st0" d="M613,82c-12.4,0-19.1-8.6-20.6-26.2c0-0.1,0-0.2,0-0.3c0.2-1.5,2.4-14.6,7.2-16.9c4.9-2.3,10.9,0.7,13.8,3.4
			c2.6,2.3,14.1,3.2,15.9,1.2c0.4-0.5,1.1-0.6,1.7-0.4c0.6,0.2,1,0.8,1,1.4c0,2.6,0.3,8.2,1.6,11c0.1,0.2,0.1,0.5,0.1,0.7
			C631.9,73.4,625.2,82,613,82z M595.4,55.8c1.4,15.8,7,23.2,17.6,23.2c10.5,0,16-7.1,17.6-23.1c-1.1-2.8-1.5-6.8-1.6-9.4
			c-5.1,1.6-14.7,0-17.6-2.4c-2.4-2.2-7.1-4.5-10.5-2.9C598.7,42.3,596.4,49.5,595.4,55.8z"/>
	</g>
	<path class="st1" d="M644,94.7c3.1-0.1,10,0.8,14.2,6.7c2.5,3.5,7.7,30.4,9.5,48.4c1.2,12.4-1.7,20-5.3,20.5
		c-3.7,0.5-10.7,0.9-16.8,0c0.7,15.1,2.9,23.4,2.9,23.4s-18.6,2.7-32.9,2.7c-14.4,0-31.2-2.7-31.2-2.7s-0.3-8.4,0.8-21.1
		c-5.5-0.1-10.9-0.8-14.2-3.1c-2.6-1.8-3.9-14.4-4.7-23.9c-1.4-16.8,0.9-38.7,4.7-42.9c4.8-5.3,7.2-7.9,24-7.9c0,0,4.8,1.4,8.6-1.7
		c0.8-0.7,1.6-1.6,2.3-2.8l8.4,7.6c0,0,6.8-2,8.4-7.6c0.4,0.9,0.8,1.6,1.4,2.1c3.3,3.4,9.3,2.3,9.3,2.3
		C640.5,94.8,641,94.8,644,94.7z"/>
	<path class="st0" d="M615.5,197.9c-14.4,0-31.3-2.7-31.4-2.7c-0.7-0.1-1.2-0.7-1.3-1.4c0-0.1-0.3-7.9,0.7-19.6
		c-6.2-0.3-10.6-1.3-13.4-3.3c-2.5-1.7-4-8.7-5.3-25c-1.4-15.8,0.5-39,5.1-44c5.2-5.8,8.2-8.4,25.1-8.4c0.1,0,0.3,0,0.4,0.1
		c0,0,3.7,0.9,6.8-1.1c0.2-0.3,0.5-0.6,0.9-0.7c0.6-0.6,1.1-1.3,1.6-2c0.2-0.4,0.6-0.7,1.1-0.7c0.4-0.1,0.9,0.1,1.2,0.4l7.7,7
		c1.7-0.7,5.6-2.6,6.6-6.3c0.2-0.6,0.7-1,1.3-1.1s1.2,0.3,1.5,0.9c0.3,0.7,0.5,1.1,0.8,1.4c0.1,0.1,0.3,0.2,0.4,0.3l0,0l0,0l0,0l0,0
		c2.7,2.8,7.9,1.9,8,1.9s0.2,0,0.3,0c7,0,7.6,0,10.5-0.1c1.7-0.1,10.3,0,15.5,7.3c2.9,4,8,31.5,9.8,49.1c1.2,12.3-1.5,21.4-6.6,22.1
		c-3.8,0.5-9.9,0.8-15.5,0.2c0.8,13.6,2.7,21.3,2.8,21.3c0.1,0.4,0,0.8-0.2,1.2s-0.6,0.6-1,0.7C648.4,195.2,629.8,197.9,615.5,197.9
		z M585.8,192.4c4.1,0.6,17.8,2.5,29.7,2.5c11.7,0,26.3-1.8,31.1-2.5c-0.6-3-1.9-10.1-2.5-20.9c-4.1-1-10.8-3.7-17.1-6.9
		c-1.3,0.4-3,1-4.8,1.7c-7.4,2.6-18.6,6.6-25.8,7.3c-3.1,0.3-6.6,0.5-10,0.5C585.8,183.1,585.7,189.8,585.8,192.4z M594.7,96.4
		c-16.1,0-18.2,2.3-22.7,7.4c-3.2,3.5-5.9,24.4-4.3,41.8c1.6,18.5,3.2,22.2,4.1,22.8c2.5,1.7,6.7,2.7,12.8,2.8c0,0,0,0,0.1,0
		s0.3-0.1,0.5-0.1c3.6,0,7.5-0.2,11-0.5c6.8-0.6,17.8-4.5,25-7.1c0.8-0.3,1.5-0.5,2.2-0.8c-2-1.1-3.9-2.2-5.5-3.3
		c-0.1,0.3-0.4,0.5-0.6,0.7c-0.4,0.2-0.9,0.2-1.3,0l-3.1-1.4c-0.6-0.3-1-0.9-0.9-1.6l0.4-2.2c-0.2,0.3-0.6,0.5-1,0.6
		c-0.6,0.1-1.1-0.1-1.5-0.6c-0.6-0.7-0.5-1.7-0.2-2.7c-8.7,0.3-21.1-0.8-21.7-0.9c-0.7-0.1-1.3-0.7-1.4-1.4l-1.4-27.3
		c0-0.8,0.6-1.5,1.4-1.6c0.9,0,1.5,0.6,1.6,1.4l1.3,26c3.7,0.3,14.7,1.2,21.6,0.7c0.5-0.1,1,0.1,1.4,0.5c0.7,0.8,0.4,1.8,0.2,2.9
		c0,0.2-0.1,0.4-0.2,0.7c0.1,0.1,0.1,0.2,0.1,0.3l2.5-15.4c0.1-0.4,0.3-0.8,0.7-1.1c0.4-0.2,0.9-0.3,1.3-0.1l2.8,1.1
		c0.7,0.3,1.1,1,0.9,1.7l-0.1,0.4c9.1,2.6,19,4.9,21.7,4.9h0.1c0.6-2,1-9.3,1.2-17.2c-0.1-2.6-0.1-5,0.1-6.5
		c0.1-0.8,0.8-1.4,1.6-1.3c0.8,0,1.4,0.7,1.4,1.5c0,2.5,0,4.7,0,6.7c0,1.9,0.1,3.9,0,5.5c0,0.3-0.1,0.5-0.2,0.7
		c-0.5,11.8-1.6,12.7-2,13.1c-0.6,0.5-2.1,1.8-24.2-4.4l-1.9,13.2c2.5,1.7,5.7,3.6,9.2,5.4c0.2,0.1,0.5,0.2,0.7,0.3
		c6.6,3.4,13.8,6.3,17.4,6.9c0.1,0,0.1,0,0.2,0c6.2,0.9,13.2,0.4,16.4,0c2-0.3,5.2-6.1,4-18.9c-1.9-19.1-7.1-44.7-9.2-47.7
		c-4.3-6-11.5-6.1-12.9-6.1c-3,0.1-3.6,0.1-10.5,0.1c-0.8,0.1-4.6,0.6-7.9-0.9v12.7c0,0.6-0.4,1.2-0.9,1.4c-0.6,0.2-1.2,0.1-1.6-0.3
		l-8.9-9.1l-8.2,7.7c-0.4,0.4-1,0.5-1.5,0.3s-0.9-0.7-1-1.2l-1.2-11.1C598.9,97.2,595.6,96.6,594.7,96.4z M615.1,156.5L615.1,156.5
		c0.1-0.1,0.2-0.3,0.2-0.5l1.5-10.1L615.1,156.5z M611.3,152.1L611.3,152.1C611.2,152.1,611.2,152.1,611.3,152.1z M642.9,144.9
		L642.9,144.9L642.9,144.9z M616.8,98.5l5.8,5.9V93.8C621,96.2,618.6,97.7,616.8,98.5z M605,93.9l1.1,9.7L612,98l-5.9-5.4
		C605.7,93.1,605.4,93.5,605,93.9z"/>
	<g>
		<path class="st1" d="M646.2,134.4c-8.1,1.4-12.7,4.5-17.2,9.6l16.1,3.5c5-0.9,9.6,2.5,14.6-3.5C664.8,137.8,654.3,133,646.2,134.4
			z"/>
		<path class="st0" d="M652.3,149.2c-0.9,0-1.9-0.1-2.7-0.2c-1.5-0.1-2.9-0.3-4.2,0c-0.2,0-0.4,0-0.6,0l-16.1-3.5
			c-0.5-0.1-0.9-0.5-1.1-1c-0.2-0.5-0.1-1.1,0.3-1.5c4.4-4.9,9.1-8.5,18.1-10.1c6.3-1.1,13.6,1.2,15.8,5.1c0.7,1.3,1.6,3.9-0.9,6.9
			C657.9,148.5,655,149.2,652.3,149.2z M647.1,145.8c1,0,1.9,0.1,2.8,0.2c3.2,0.3,5.8,0.5,8.7-3c1.6-1.9,0.9-3.1,0.6-3.5
			c-1.6-2.7-7.8-4.5-12.7-3.7l0,0c-7,1.2-11,3.7-14.6,7.2l13.2,2.9C645.8,145.9,646.4,145.8,647.1,145.8z M646.2,134.4L646.2,134.4
			L646.2,134.4z"/>
	</g>
	<g>
		<path class="st1" d="M616.1,140.6l-5.9-1.1c-2.8-5.5-16.8-7-22.7-1.7l0.6,12.4c3.7,2.5,12.5,1.1,15.1,0.8l10.4,4.8L616.1,140.6z"
			/>
		<path class="st0" d="M613.6,157.3c-0.2,0-0.4,0-0.6-0.1l-10-4.6h-0.4c-5.7,0.7-11.9,1.1-15.3-1.1c-0.4-0.3-0.6-0.7-0.7-1.2
			l-0.6-12.4c0-0.5,0.2-0.9,0.5-1.2c4.2-3.8,11.2-4.1,15.9-3.3c4.1,0.8,7.2,2.5,8.7,4.7l5.2,1c0.8,0.1,1.3,0.9,1.2,1.7L615,156
			c-0.1,0.5-0.4,0.9-0.8,1.1C614.1,157.2,613.8,157.3,613.6,157.3z M603.2,149.5c0.2,0,0.4,0,0.6,0.1l8.6,4l1.9-11.8l-4.5-0.8
			c-0.5-0.1-0.8-0.4-1.1-0.8c-0.9-1.7-3.5-3.2-7-3.8c-4.1-0.8-9.6-0.4-12.8,2.1l0.5,10.8c3.2,1.5,10,0.6,12.6,0.3l0.8-0.1
			C603.1,149.5,603.1,149.5,603.2,149.5z"/>
	</g>
	<path class="st1" d="M618,102.1l-0.6,4.5l1.4,32.9l0.3,0.1l-0.2,2l-0.1-2l-2.5-0.5l-0.3,1.5l-5.9-1.1l2-32.9l-0.7-5.1v-0.3l3-2.8
		L618,102.1z"/>
	<path class="st1" d="M614.5,194.4l-7-7l1.1-17.7l11.6-3.9l0.9,21.7L614.5,194.4z"/>
	<path class="st0" d="M614.3,196.6l-8.6-8.6l1.1-19.5l14.5-4.9l1,24.3L614.3,196.6z M608.8,186.8l5.4,5.4l5-5.4l-0.8-19.1l-8.7,2.9
		L608.8,186.8z M617.2,142.4l-8.7-1.6l2.1-34.1l-0.7-5.5v-0.7l4.5-4.2l5.2,5.2l-0.7,5.2h-0.1l1.4,31.4l0.5,0.1l-0.3,3.3l-3-0.1v-0.2
		L617.2,142.4z M611.7,138.3l3.1,0.6l0.3-1.7l2.1,0.5l-1.3-30.1c-0.5-0.2-1.4-0.4-2.4,0L611.7,138.3z M617.4,106.6L617.4,106.6
		L617.4,106.6L617.4,106.6z M614.8,104.2c0.5,0,1,0.1,1.5,0.2l0.2-1.8l-2.2-2.2l-1.4,1.3l0.4,2.6
		C613.8,104.3,614.3,104.2,614.8,104.2z"/>
	<path class="st0" d="M620.6,56.3c1.2,0,2.2-1,2.2-2.2s-1-2.2-2.2-2.2s-2.2,1-2.2,2.2S619.5,56.3,620.6,56.3z"/>
	<path class="st0" d="M607.1,56.3c1.2,0,2.2-1,2.2-2.2s-1-2.2-2.2-2.2s-2.2,1-2.2,2.2S606,56.3,607.1,56.3z"/>
	<path class="st0" d="M613,65.2c-0.8,0-1.5-0.7-1.5-1.5s0.7-1.5,1.5-1.5c0.3,0,0.5,0,0.7,0c-0.1-0.3-0.2-0.6-0.3-0.9
		c-0.2-0.5-0.4-1-0.6-1.8c-0.2-0.8,0.2-1.6,1-1.9c0.8-0.2,1.6,0.2,1.9,1c0.2,0.7,0.4,1.3,0.6,1.7c0.2,0.5,0.3,0.9,0.4,1.4
		c0.1,0.4,0.4,1.4-0.3,2.4C615.5,65.1,614.1,65.2,613,65.2z M613.8,62.6L613.8,62.6L613.8,62.6z"/>
	<path class="st0" d="M614.3,72.8c-2.9,0-5.7-1.2-7.8-3.4c-0.6-0.6-0.6-1.5,0-2.1s1.5-0.6,2.1,0c1.6,1.7,3.9,2.6,6,2.5
		c1.8-0.1,3.4-0.9,4.5-2.3c0.5-0.7,1.4-0.8,2.1-0.3c0.7,0.5,0.8,1.4,0.3,2.1c-1.6,2.1-4,3.3-6.7,3.5
		C614.7,72.8,614.5,72.8,614.3,72.8z"/>
	<g>
		<path class="st1" d="M597.5,35.1L597.5,35.1L597.5,35.1c-0.1,0-0.1,0-0.2,0c-0.1,0-0.4-0.1-0.6-0.1c-0.6-0.1-1.3-0.1-2.1,0.1
			c-0.8,0.2-1.6,0.6-2.3,1.3s-1.4,1.8-1.9,3.6c-0.9,3.6-0.4,7.8,0.8,11.1c0.6,1.7,1.3,3.1,2,4.2c0,0,0,0.1,0.1,0.1
			c0.5-3.1,1.3-6.3,2.1-9c0.6-1.7,1.2-3.3,2-4.5c0.7-1.2,1.6-2.3,2.9-2.8c1.8-0.6,4.1-0.6,6.3-0.1s4.4,1.6,6.1,3.3
			c0.5,0.5,1.5,1,3,1.4s3.2,0.8,5,1s3.5,0.2,5,0.1c1.5-0.1,2.5-0.4,3-0.7l2.3-1.4v2.7c0,2.3,0.4,5.7,1,8.5c0.1,0.3,0.1,0.6,0.2,0.8
			c0.8-2.7,1.6-6.1,2.2-9.2c0.5-2.5,0.8-4.9,1-6.8c0.1-0.9,0-1.7,0-2.3c-0.1-0.6-0.2-0.9-0.2-1l0,0l0,0c-2.1-3.3-9.2-12.2-24.3-12.2
			c-3.8,0-6.3,0.7-7.9,1.7c-1.6,0.9-2.5,2.1-3,3.3c-0.5,1.2-0.6,2.5-0.6,3.4c0,0.5,0.1,0.9,0.1,1.2c0,0.1,0,0.2,0.1,0.3v0.1l0,0l0,0
			l0.6,2.5L597.5,35.1z M597.5,35.1L597.5,35.1L597.5,35.1z"/>
		<path class="st0" d="M632.6,58.8l-1.7-3.4c-0.2-0.3-0.2-0.6-0.2-0.8c0-0.1,0-0.1,0-0.2v-0.2c-0.6-2.9-1-6.4-1-8.8l0,0l0,0
			c-0.8,0.5-2.1,0.8-3.7,0.9c-1.8,0.1-3.6,0.1-5.3-0.1c-2-0.2-3.8-0.7-5.2-1c-1.7-0.5-2.9-1.1-3.7-1.8c-1.4-1.4-3.3-2.4-5.4-2.9
			c-2-0.5-4-0.4-5.5,0.1c-0.7,0.3-1.4,1-2.1,2.1c-0.8,1.1-1.3,2.7-1.9,4.2c-0.6,2.1-1.5,5.3-2,8.7l-0.2,1.3h-1.3
			c-0.6,0-1.2-0.4-1.5-0.9c-0.8-1.3-1.5-2.7-2.1-4.4c-1.4-3.9-1.7-8.4-0.8-12c0.5-1.9,1.3-3.3,2.3-4.3c0.8-0.8,1.8-1.4,3-1.7
			c0.9-0.2,1.8-0.3,2.6-0.1c0.2,0,0.4,0.1,0.6,0.1h0.4l0.4,0.1v-0.1c-0.2-0.4-0.2-0.7-0.2-0.8s0-0.2,0-0.3c0-0.3-0.1-0.6-0.1-0.9
			c0-1.5,0.2-2.8,0.7-4c0.7-1.7,1.9-3.1,3.6-4c2-1.2,4.9-1.9,8.6-1.9c16.1,0,23.6,9.9,25.6,12.9l0.2,0.4v0.4c0,0.2,0.1,0.5,0.2,0.8
			v0.2c0,0.2,0,0.3,0,0.5c0,0.5,0.1,1.2,0,1.9c-0.3,2.6-0.6,4.9-1,6.9c-0.6,3.3-1.5,6.7-2.2,9.3L632.6,58.8z M595.9,36.4
			c-0.3,0-0.6,0-0.9,0.1c-0.6,0.2-1.2,0.5-1.6,0.9c-0.6,0.6-1.2,1.6-1.5,2.9c-0.7,3-0.5,6.8,0.8,10.2c0,0.1,0,0.1,0.1,0.2
			c0.4-1.9,0.9-3.5,1.3-4.8c0.6-1.8,1.3-3.6,2.2-4.9c1-1.7,2.2-2.8,3.6-3.4c0.4-0.1,0.7-0.2,1.1-0.3l-3.6-0.8c-0.2,0-0.4,0-0.5-0.1
			h-0.1h-0.2C596.3,36.4,596.1,36.4,595.9,36.4z M632.5,40v5.4c0,0.5,0,1.1,0.1,1.6c0.1-0.6,0.3-1.2,0.4-1.8c0.4-2,0.7-4.2,1-6.7
			c0.1-0.5,0-1,0-1.5c0-0.2,0-0.4,0-0.5c0-0.2-0.1-0.4-0.1-0.5l0,0c-2.3-3.6-9-11.3-22.9-11.3c-3.1,0-5.6,0.5-7.1,1.5
			c-1.2,0.7-2,1.5-2.4,2.6c-0.3,0.8-0.5,1.7-0.5,2.8c0,0.2,0,0.4,0,0.6c0,0.1,0,0.1,0,0.2l0.1,0.1V33l1,4.2c1.5-0.2,3.2,0,4.8,0.3
			c2.6,0.6,5,1.9,6.8,3.7c0.1,0.1,0.6,0.6,2.3,1c1.3,0.3,3,0.8,4.8,1c1.5,0.2,3.1,0.2,4.7,0.1c1.3-0.1,2.1-0.3,2.3-0.5L632.5,40z"/>
	</g>
	<g>
		<path class="st1" d="M446.5,395l-118.1-18.2l-179.2-30.4l-82.3-16.2l-12.2-35.5l26.4-53.1l458.2,19.3L446.5,395z"/>
		<path class="st0" d="M447.2,396.6l-0.9-0.1l-118.1-18.2L149,347.9l-83.2-16.4l-12.7-36.9l27.1-54.5l461.9,19.5L447.2,396.6z
			 M68,328.9l81.5,16l179.2,30.4l117.1,18.1l90.7-131.1L82,243.1l-25.7,51.7L68,328.9z"/>
	</g>
	<g>
		<path class="st1" d="M137,381.1c-2.6,2-21.3,2.8-39.7,3.4l-1.4-109.6l20.4,0.6l34.4,2v73.3C149.8,362.9,139.6,379.1,137,381.1z"/>
		<path class="st0" d="M95.8,386l-1.4-112.7l22,0.6l35.9,2.1v74.8c-0.9,12.4-11.3,29.1-14.3,31.4c-2.4,1.9-12.7,2.8-40.6,3.7
			L95.8,386z M97.4,276.4L98.8,383c11.6-0.4,34.9-1.2,37.3-3l0.9,1.2l-0.9-1.2c2.3-1.8,12.2-17.8,13.1-29.2V279l-33-1.9L97.4,276.4z
			"/>
	</g>
	<g>
		<path class="st1" d="M674.8,408.4c-4.5,3-18.9,6.7-37.5,7.5l-0.7-41.6l63.3-2C699,388.5,679.2,405.4,674.8,408.4z"/>
		<path class="st0" d="M635.8,417.5l-0.8-44.6l66.4-2.1l-0.1,1.6c-0.9,16.8-20.9,33.9-25.8,37.3l0,0c-4.9,3.2-19.6,6.9-38.3,7.8
			L635.8,417.5z M638.1,375.8l0.6,38.6c17.2-0.9,30.9-4.3,35.2-7.2c3.7-2.5,22.2-18.1,24.3-33.3L638.1,375.8z"/>
	</g>
	<g>
		<path class="st1" d="M685.8,343.9c0.4,19.9-5,38-14.1,51.1s-21.6,21-35.4,21.2c-13.7,0.1-26.3-7.6-35.7-20.5
			c-9.3-12.9-15.3-30.9-15.8-50.8s4.7-38,13.5-51.1s21-21,34.7-21.1s26.6,7.6,36.3,20.5C679,306,685.3,324,685.8,343.9z"/>
		<path class="st0" d="M636,417.7c-13.7,0-26.7-7.5-36.7-21.1c-9.9-13.7-15.6-32-16.1-51.6s4.4-38,13.8-52
			c9.4-13.9,22.1-21.7,35.9-21.8c13.9-0.1,27.2,7.4,37.5,21.1c10.3,13.6,16.3,32,16.8,51.6l0,0c0.4,19.6-4.7,38.1-14.4,52
			c-9.6,13.9-22.6,21.6-36.6,21.8C636.2,417.7,636.1,417.7,636,417.7z M633.3,274.2c-0.1,0-0.2,0-0.3,0
			c-12.8,0.1-24.7,7.4-33.5,20.4c-9,13.4-13.7,31.3-13.2,50.2c0.5,19,6,36.7,15.5,50c9.3,12.8,21.5,19.9,34.2,19.9
			c0.1,0,0.2,0,0.3,0c13-0.2,25.1-7.5,34.2-20.6c9.3-13.4,14.2-31.2,13.8-50.2c-0.5-19-6.2-36.7-16.2-49.8
			C658.4,281.3,646.1,274.2,633.3,274.2z"/>
	</g>
	<g>
		<path class="st1" d="M672.6,346.4c-0.2,15.3-5.3,29-13.1,38.9s-18.2,15.9-29.1,15.8c-10.8-0.1-20.1-6.1-26.8-16
			c-6.7-10-10.6-23.8-10.4-39.1c0.2-15.3,4.5-29.1,11.4-39s16.4-15.8,27.2-15.8c10.8,0.1,21.1,6.1,28.7,16.1
			C668,317.3,672.8,331.2,672.6,346.4z"/>
		<path class="st0" d="M630.7,402.6c-0.1,0-0.2,0-0.3,0c-10.9-0.1-20.8-6-28-16.7c-7.1-10.6-10.9-24.7-10.7-40
			c0.2-15.2,4.3-29.3,11.7-39.8c7.4-10.6,17.5-16.4,28.4-16.4c11,0.1,21.9,6.2,29.9,16.7c8.1,10.8,12.6,25.4,12.4,40
			c-0.2,14.9-5,29.1-13.4,39.8C652.5,396.6,641.5,402.6,630.7,402.6z M631.8,292.7c-9.9,0-19.1,5.4-26,15.2
			c-7,10-10.9,23.6-11.1,38.2c-0.2,14.6,3.4,28.2,10.1,38.2c6.6,9.8,15.7,15.2,25.6,15.3c10.1,0.1,20.2-5.5,27.9-15.2
			c8.1-10.2,12.6-23.7,12.8-38l0,0c0.2-14-4.1-27.9-11.8-38.2C651.9,298.4,641.9,292.8,631.8,292.7z"/>
	</g>
	<g>
		<path class="st1" d="M424.9,430.5c-3.4,2.6-21.4,4.4-45.9,5.1l-2.7-144.3h32.9l34.9,39.2l3.1,32.7l-0.3,28.4
			C446,407.8,428.3,427.8,424.9,430.5z"/>
		<path class="st0" d="M377.5,437.1l-2.8-147.3h35.1l35.7,40.1l3.2,33.3l-0.3,28.5c-0.9,16.9-19,37.2-22.6,40.1l0,0
			c-4.8,3.7-31.4,5-46.8,5.4L377.5,437.1z M377.8,292.8l2.6,141.3c28.6-0.9,41.2-3,43.5-4.7c3-2.4,20.5-22.1,21.4-37.8l0.3-28.3
			l-3-32.1l-34.1-38.3h-30.7V292.8z"/>
	</g>
	<g>
		<path class="st1" d="M422.1,363.4c0.4,20-4.4,38.1-12.4,51.1c-8,13.1-19,21-30.9,21.1s-23-7.5-31.2-20.4s-13.5-30.9-13.9-50.9
			s4.2-38.1,11.9-51.2c7.7-13.1,18.5-20.9,30.4-21.1c11.9-0.1,23.2,7.5,31.7,20.4C416.1,325.4,421.8,343.4,422.1,363.4z"/>
		<path class="st0" d="M378.6,437.1c-12.1,0-23.6-7.5-32.2-21.1c-8.7-13.7-13.7-32.1-14.1-51.7s3.9-38,12.1-52
			c8.2-13.9,19.4-21.6,31.7-21.8c0.1,0,0.2,0,0.2,0c12.2,0,23.8,7.5,32.7,21.1c9.2,14.2,14.4,32.6,14.6,51.8
			c0.4,19.6-4.1,38-12.6,51.9c-8.5,14-20,21.7-32.2,21.8C378.7,437.1,378.6,437.1,378.6,437.1z M376.2,293.5c-0.1,0-0.1,0-0.2,0
			c-11.2,0.2-21.5,7.4-29.1,20.4c-7.9,13.5-12.1,31.4-11.7,50.4c0.4,19.1,5.2,36.9,13.7,50.1c8.1,12.8,18.8,19.8,29.9,19.7
			c11.1-0.1,21.7-7.3,29.6-20.4c8.2-13.4,12.6-31.2,12.2-50.3l0,0c-0.3-18.7-5.3-36.5-14.2-50.2
			C398.1,300.5,387.3,293.5,376.2,293.5z"/>
	</g>
	<g>
		<path class="st1" d="M410.5,365.9c-0.2,15.3-4.7,29.1-11.6,39s-16,15.8-25.4,15.7c-9.3-0.1-17.5-6-23.4-15.9
			c-5.9-10-9.4-23.8-9.2-39.2c0.2-15.4,3.9-29.2,10-39.1s14.4-15.7,23.7-15.7c9.4,0.1,18.3,6,25,16
			C406.4,336.8,410.8,350.6,410.5,365.9z"/>
		<path class="st0" d="M373.7,422.1c-0.1,0-0.2,0-0.2,0c-9.6-0.1-18.3-6-24.7-16.6c-6.3-10.6-9.6-24.8-9.4-40
			c0.2-15.3,3.8-29.5,10.2-39.9c6.5-10.6,15.4-16.4,25-16.4c9.8,0.1,19.1,6,26.2,16.7c7.5,11.1,11.4,25.3,11.2,40.1
			c-0.2,15-4.4,29.1-11.9,39.8C392.9,416.2,383.3,422.1,373.7,422.1z M374.6,312.2c-8.5,0-16.5,5.3-22.4,15
			c-6.1,9.9-9.6,23.5-9.8,38.3c-0.2,14.6,3,28.3,9,38.4c5.8,9.7,13.6,15.1,22.1,15.2c0.1,0,0.1,0,0.2,0c8.5,0,17.3-5.5,23.9-15.1
			c7.1-10.2,11.1-23.8,11.3-38.2l0,0c0.3-14.1-3.5-27.7-10.6-38.3C391.8,317.7,383.3,312.3,374.6,312.2z"/>
	</g>
	<path class="st1" d="M328.4,377.4l-195.6-29.2c-7.7-75.2-31.2-88-41.7-88.6s-32.4,17.9-23.8,71c-22.1-8.2-18.2-15-18.2-29.8
		s-2.8-54.5,7.7-67c-4-24.1,2-24.7,4-25.6c6-11.9,20.4-10.8,30.4-20.2c9.9-9.4,54.5-50.8,96-62.5c3.5-1,7.1-1.9,10.7-2.8
		c26.8-6.6,42.6-7.9,61.7-9.2c21.1-1.4,61.5-0.6,90.7,0h1.9c23.4,0.5,73.2,7.6,95.1,11.1c33.2,5.4,48.8,17.3,61,23.6
		c12.2,6.2,48,33.8,80.3,53.1c22.1,0.6,55.6,8.8,73.3,14.5c17.6,5.7,56.2,25,60.5,37.2c3.4,9.8,2.4,25.3,1.4,31.8
		c2.8-0.6,11.4-6,11.1-11.4c9.9,11.1,12.8,72.4,9.9,103.9C675.1,393,514,398.6,442.1,399.4l-6.8-13.1c0.3-6.1-0.3-23.3-4.8-44
		c-5.7-25.8-26.7-73-61.6-69C333.8,277.4,321.6,328.3,328.4,377.4z"/>
	<path class="st0" d="M440.8,401.2l-7.4-14.3v-0.4c0.4-7.1-0.6-24.5-4.8-43.6c-2.7-12.3-9.3-30.6-19.6-45.1
		c-8.2-11.5-21.9-24.8-40.4-22.7c-9.6,1.1-17.9,6-24.5,14.5c-14,18-19.5,51.6-14.5,87.7l0.3,2l-198.7-29.7l-0.1-1.2
		c-8.2-81.3-35-87-40.3-87.3c-2.9-0.2-7.7,1.6-12.3,6.8c-6.3,7-16,24.5-9.9,62.5L69,333l-2.4-0.9c-20.1-7.4-19.8-14.2-19.3-25.4
		c0.1-1.8,0.2-3.7,0.2-5.8c0-2.2-0.1-4.9-0.1-8.1c-0.4-18-1.1-47.8,7.7-59.3c-3.2-20.2,0.3-24.7,4.5-26.4c3.7-7,10.3-9.7,16.7-12.3
		c4.8-2,9.7-4,13.7-7.8c20.3-19.1,59.8-52.6,96.6-62.9c3.3-0.9,6.6-1.8,9.8-2.6c28.3-7.1,44.4-8.1,62.7-9.3
		c22.3-1.4,66.4-0.5,92.7,0c23.2,0.5,72.5,7.5,95.3,11.1c27.2,4.4,42.8,13.3,54.1,19.7c2.6,1.5,5,2.9,7.3,4
		c5.6,2.9,15.7,9.9,28.6,18.9c15.1,10.5,33.8,23.5,51.5,34.1c23,0.7,56.4,9.1,73.3,14.6c15.7,5.1,56.7,24.8,61.5,38.1
		c3,8.7,2.6,21.9,1.8,30c3.2-1.7,8-5.5,7.8-9l-0.2-4.3l2.9,3.2c10.9,12.2,12.9,75.8,10.3,105l-0.1,1.1l-1.1,0.2
		c-68.8,15.4-228.3,21.2-303,22.1L440.8,401.2z M436.4,386.3l6.2,11.9c74.6-1,231.6-6.7,300.4-21.8c2.5-30.3-0.1-83.6-7.8-99
		c-2.4,4.8-9,8.6-11.4,9.1l-2.1,0.4l0.3-2.1c1-7.2,1.8-21.9-1.3-31.1c-4-11.3-41-30.3-59.5-36.3c-16.2-5.3-50.4-13.8-72.9-14.4h-0.4
		l-0.3-0.2c-17.8-10.6-36.8-23.8-52-34.4c-12.7-8.9-22.8-15.9-28.2-18.7c-2.3-1.2-4.8-2.6-7.4-4.1c-11.2-6.3-26.5-15-53.1-19.4
		c-22.7-3.6-71.8-10.6-94.9-11.1c-26.3-0.5-70.3-1.4-92.5,0c-0.4,0-0.8,0.1-1.2,0.1c15.9,1.4,27.8,5.8,35.5,13.1
		c8.2,7.8,15.7,21.3,23,34.4c9.5,17.1,19.4,34.7,29.4,36.5c3.3,0.6,9.7,1.6,17.8,2.8c38.4,5.8,118.3,18,146.2,32.5
		c34.2,17.8,49.9,26.9,64.8,55.1l-2.7,1.4c-14.5-27.5-29.1-35.9-63.6-53.9c-27.5-14.3-107-26.4-145.2-32.2
		c-8.1-1.2-14.5-2.2-17.8-2.8c-11.4-2.1-21.1-19.5-31.4-38c-7.2-12.9-14.6-26.1-22.4-33.7c-18-17.3-59.7-14.7-95.6-5.9
		c-2.8,0.7-5.6,1.4-8.6,2.3c-36.2,10.1-75.3,43.3-95.4,62.1c-4.4,4.2-9.6,6.3-14.7,8.4c-6.3,2.6-12.2,5-15.4,11.4l-0.2,0.5l-0.5,0.2
		c-0.2,0.1-0.3,0.1-0.5,0.2c-1.8,0.7-6.1,2.4-2.6,23.8l0.1,0.7l-0.4,0.5c-8.6,10.2-7.9,40-7.5,57.8c0.1,3.2,0.1,6,0.1,8.2
		c0,2.1-0.1,4-0.2,5.9c-0.2,5.4-0.4,9.2,1.6,12.6c2,3.3,6.1,6.1,13.3,9c-5.4-37.4,4.5-55.1,11-62.4c4.6-5.1,10.1-8,14.7-7.8
		c8,0.5,34.6,8.2,43,88.8l192.5,28.7c-4.6-36.1,1.2-69.7,15.4-88c7.1-9.2,16-14.4,26.5-15.6c34.1-3.9,56.5,39.8,63.2,70.2
		C436,362.7,436.7,379.7,436.4,386.3z"/>
	<path class="st0" d="M573.3,291.7c-3.5-0.5-9.5-1.3-17.1-2.3c-10.5-1.3-24.8-3.2-40.5-5.4c-32-4.5-115.1-39.5-112.6-63.5l0.2-1.7
		l1.6,0.3c76.3,16.2,140.5,34.6,149.5,43l-2,2.2c-9.3-8.6-82.7-28.3-146.3-41.8c2.1,20.7,77.7,54,110,58.6c15.7,2.3,30,4.1,40.4,5.4
		c7.7,1,13.7,1.7,17.2,2.3L573.3,291.7z"/>
	<path class="st0" d="M644.6,259.6c-16.9,0-34.2-0.2-49.6-0.3c-23.5-0.2-42.1-0.4-48.3,0.1l-0.2-3c6.4-0.5,25-0.3,48.6-0.1
		c44.9,0.4,106.3,1,125.2-2.7l0.6,2.9C708.2,259,677.1,259.6,644.6,259.6z"/>
	<path class="st0" d="M649.5,299.6c-22.7,0-48.5-2.1-75-7.6l0.6-2.9c69.4,14.4,127.4,5.1,144.5-1.6l1.1,2.8
		C707.7,295.3,681.7,299.6,649.5,299.6z"/>
	<path class="st0" d="M495.5,399.5l-2-2.3c20.2-17.6,28.6-28.4,34.7-36.3c4-5.1,7.1-9.1,11.9-13.1c9.9-8.1,59.1-11.6,108.6-14.4
		c6.3-0.4,12-0.7,16.8-1c5.9-0.4,12-0.8,18-1.2c39.6-2.8,57.3-3.7,60.1-1.2c2.9,2.7,3.3,6.5,3.3,9.6h-3c0-2.6-0.3-5.5-2.3-7.4
		c-2.9-1.9-33.4,0.2-57.8,2c-6,0.4-12,0.8-18,1.2c-4.9,0.3-10.6,0.6-16.8,1c-36.3,2-97,5.5-106.9,13.7c-4.5,3.7-7.6,7.7-11.4,12.6
		C524.4,370.8,515.9,381.7,495.5,399.5z"/>
	<path class="st0" d="M58.1,234.2l-2.9-0.7c0.4-1.4,2.9-4.6,7.5-9.5c1.7-1.8,3.3-3.2,4.7-4.5c3.7-3.4,6.1-5.6,6.7-9.5
		c-2.7-0.1-7.6-0.1-13.3,0.1l-0.1-3c7.2-0.2,13.1-0.1,15.1,0l1.5,0.1l-0.1,1.5c-0.2,6.2-3.6,9.2-7.8,13.1c-1.4,1.3-2.9,2.7-4.5,4.4
		C58.7,232.5,58.2,234.1,58.1,234.2z"/>
	<path class="st0" d="M588.6,202.9c-4.2-0.5-208.6-3.1-220.9-2.8c-11.8,0.3-24.7-5.8-28-11.2c-2.8-4.8-24.2-34.9-44.5-60.9
		c-1.1-1.5-0.8-2.7-0.6-3.2c1.2-2.5,6.1-2.9,15.2-2.9h1.1h1.6c39.3-0.2,134.2,0.3,166.4,10.9c2.4,0.7,5.2,1.6,7,2.3
		c0.6,0.2,1.1,0.4,1.5,0.5l-0.9,2.8c-0.4-0.1-0.9-0.3-1.5-0.5c-1.8-0.6-4.5-1.6-6.9-2.3c-32.7-10.7-134.9-10.9-165.5-10.8H311h-1.1
		c-7.2,0-11.3,0.4-12.4,1.1c0,0,0.1,0.1,0.1,0.2c21.2,27.1,42,56.5,44.7,61.2c2.5,4.1,14.3,10,25.4,9.8
		c12.9-0.3,217.8,2.3,221.5,2.8L588.6,202.9z"/>
	<g>
		<path class="st1" d="M127.7,224.6c-3.5-0.4-12.3-1.1-19.6-1.1c-0.9-4.8,0-4.8,3.7-6.8s4.5,0,2,0.9c-2.6,0.9,3.1,4.5,11.1-0.9
			C126.2,217.6,128.6,220.6,127.7,224.6z"/>
		<path class="st0" d="M128.9,226.2l-1.3-0.2c-3.1-0.4-12-1.1-19.4-1.1H107l-0.2-1.2c-0.9-5.1,0.1-6.1,3.6-7.9l0.8-0.5
			c2.1-1.1,3.8-1.3,4.8-0.6c0.6,0.4,0.9,1.1,0.8,1.9c-0.1,0.5-0.3,1-0.8,1.5c1.7,0.2,4.6-0.2,8.1-2.6l0.9-0.6l0.8,0.6
			c1.9,1.3,4.4,5,3.4,9.5L128.9,226.2z M109.4,222c6.3,0.1,13.3,0.6,17,0.9c0-1.9-0.8-3.5-1.6-4.4c-5,3-9.5,3-11.7,1.7
			c-1-0.6-1.3-1.3-1.3-1.8l0,0C109.3,219.7,109,219.9,109.4,222z"/>
	</g>
	<g>
		<path class="st1" d="M221.4,235.4c-4.3-0.9-15.2-2.6-25-2.6c-0.5-1-1.1-3.3,0-4.3c2.8-1.4,3.7-4.8,6.5-3.7
			c2.3,0.9-0.2,2.8-1.7,3.7c3.2,0.7,10.8,1.1,15.6-2.3C218.6,227.4,222,230.7,221.4,235.4z"/>
		<path class="st0" d="M222.7,237.2l-1.6-0.3c-4.9-1-15.6-2.6-24.7-2.6h-0.9l-0.4-0.8c-0.8-1.6-1.4-4.5,0.3-6.1l0.2-0.1l0.2-0.1
			c0.8-0.4,1.5-1.1,2.2-1.8c1.2-1.3,2.9-3,5.5-1.9c1.5,0.6,1.8,1.6,1.9,2.2c0.1,0.6-0.1,1.2-0.6,1.8c3.6,0.2,8.1-0.3,11.2-2.5
			l0.8-0.6l0.9,0.6c2.8,1.9,5.9,5.8,5.3,10.6L222.7,237.2z M197.4,231.3c8.1,0.1,17.2,1.3,22.5,2.3c-0.3-2.7-2.1-4.6-3.2-5.6
			c-5.3,3.1-12.6,2.7-15.8,1.9l-2.9-0.6c-0.2,0.1-0.4,0.3-0.6,0.4C197.2,230,197.2,230.6,197.4,231.3z M201.9,226.1
			c-0.4,0-0.8,0.3-1.8,1.3l0,0l0.4-0.2C201.2,226.8,201.7,226.4,201.9,226.1L201.9,226.1z"/>
	</g>
	<g>
		<path class="st1" d="M120.2,329.4c0.2,15.2-2.4,28.9-6.7,38.8c-2.1,5-4.7,8.9-7.5,11.6s-5.6,4-8.6,4.1c-2.9,0-5.8-1.2-8.6-3.8
			c-2.8-2.6-5.4-6.4-7.6-11.3c-4.4-9.8-7.3-23.4-7.5-38.6s2.3-28.9,6.4-38.8c2.1-5,4.6-8.9,7.3-11.5c2.7-2.7,5.6-4,8.5-4.1
			c2.9,0,5.9,1.2,8.7,3.8c2.8,2.6,5.5,6.5,7.8,11.3C117,300.5,120,314.2,120.2,329.4z"/>
		<path class="st0" d="M97.4,385.4c-3.4,0-6.7-1.4-9.7-4.2c-3-2.8-5.7-6.8-7.9-11.8c-4.7-10.5-7.4-24.4-7.6-39.2
			c-0.2-14.8,2.1-28.8,6.5-39.4c2.2-5.2,4.7-9.2,7.6-12c2.9-2.9,6.1-4.4,9.5-4.5l0,0c3.5,0,6.8,1.5,9.8,4.2
			c2.9,2.7,5.8,6.8,8.1,11.8c4.9,10.1,7.8,24.4,7.9,39.1l0,0c0.2,14.8-2.2,28.8-6.8,39.4c-2.1,5-4.8,9.2-7.8,12.1
			S100.9,385.3,97.4,385.4L97.4,385.4z M95.9,277.3c-2.6,0.1-5.1,1.3-7.4,3.7c-2.6,2.5-5,6.3-7,11c-4.2,10.2-6.5,23.8-6.3,38.2
			c0.2,14.3,2.8,27.8,7.4,38c2.1,4.6,4.5,8.3,7.3,10.8c2.4,2.3,5,3.4,7.6,3.4c2.6-0.1,5.1-1.3,7.6-3.7c2.7-2.6,5.2-6.5,7.2-11.1
			c4.4-10.2,6.8-23.8,6.6-38.2l0,0c-0.2-14.3-3-28.1-7.7-37.9c-2.2-4.6-4.8-8.4-7.5-10.9C101.2,278.5,98.5,277.3,95.9,277.3z"/>
	</g>
	<g>
		<path class="st1" d="M114,331.3c-0.1,11.7-2.5,22.1-6.2,29.6c-3.8,7.6-8.5,11.6-13,11.6c-4.4,0-8.7-4.1-12-11.7
			c-3.2-7.5-5.1-18.1-5-29.8c0.1-11.7,2.1-22.2,5.4-29.7c3.3-7.6,7.7-11.6,12.1-11.6c4.5,0,9.2,4.1,12.8,11.8
			C111.8,309.1,114.1,319.6,114,331.3z"/>
		<path class="st0" d="M94.8,374c-5.1,0-9.8-4.5-13.4-12.6c-3.4-8-5.2-18.8-5.1-30.4c0.1-11.7,2.1-22.4,5.5-30.3
			c3.5-8.1,8.3-12.5,13.5-12.5s10.4,4.6,14.2,12.7c4,8.2,6.1,19,6,30.4s-2.4,22.1-6.4,30.3C105.1,369.6,100,374,94.8,374z
			 M95.3,291.2c-3.9,0-7.8,3.9-10.7,10.7c-3.3,7.5-5.2,17.9-5.3,29.1c-0.1,11.1,1.7,21.7,4.9,29.2c3,6.9,6.8,10.8,10.6,10.8
			c4,0,8.2-3.9,11.7-10.8c3.8-7.7,5.9-18,6-28.9c0.1-11-1.9-21.3-5.7-29.1C103.5,295.3,99.3,291.2,95.3,291.2z"/>
	</g>
	<path class="st1" d="M287,137.5c15.6,14.5,25.3,34.4,43.7,67.9c5.1,9.4,0,9.4-4.5,8.8c-4.5-0.6-103.6-13.1-122.4-14.8
		c-17-1.6-62.4-6.3-82.9-8.5c5.7-24.7,13.4-31.1,19.3-36.5s30-16.5,43-20.5c16.5-5.1,30.5-7,43-8.3C240.1,124.1,271.3,123,287,137.5
		z"/>
	<path class="st0" d="M193.7,342.6c-3.2-10.4-2.1-25.6-1.4-35.7c0.2-2.7,0.4-5,0.4-6.8c0.1-4.1-0.7-12.1-1.7-20.6
		c-1-9.3-2.2-19.8-2.3-28.1c-0.2-10,0.7-34.3,12.3-50.8c-18.4-1.8-60.4-6.1-80.3-8.2l-1.7-0.2l0.4-1.6c5.7-24.6,13.3-31.5,19.4-36.9
		l0.4-0.3c6.2-5.6,30.6-16.8,43.6-20.8c16.5-5.1,30.6-7,43.3-8.4l0.2,1.5l-0.1-1.5c13.2-1.3,45.6-2.8,62,12.3
		c13.8,12.8,23.2,30,37.3,56.1c2.1,3.9,4.3,7.9,6.7,12.2c2.4,4.5,2.9,7.4,1.6,9.3c-1.5,2.2-4.5,2.1-7.6,1.7
		c-3.8-0.5-100.9-12.8-121.5-14.7c-4.4,5.8-13.3,21.2-12.8,50.4c0.2,8.1,1.3,18.6,2.3,27.8c1,9,1.8,16.7,1.7,21
		c-0.1,1.9-0.2,4.2-0.4,6.9c-0.7,9.8-1.8,24.7,1.3,34.6L193.7,342.6z M205.8,198.1c22.6,2.2,116.9,14.1,120.6,14.6
		c2.7,0.4,4.3,0.2,4.7-0.4c0.2-0.3,0.7-1.7-1.8-6.2c-2.4-4.3-4.6-8.4-6.7-12.2c-14-25.8-23.3-42.8-36.7-55.3
		c-15.1-14-45.6-12.8-58.8-11.6c-3.8,8-12,37.2-17.4,56.8C208.1,189.9,206.7,194.9,205.8,198.1z M122.8,189.6
		c21,2.2,62.9,6.6,80,8.2c0.9-3.1,2.4-8.4,4.2-14.8c5.1-18.5,12.6-45.5,16.8-55.6c-11.9,1.3-24.9,3.3-40.1,8
		c-12.6,3.9-36.6,15-42.4,20.2l-0.4,0.3C135.2,160.9,128.2,167.2,122.8,189.6z"/>
	<g>
		<path class="st1" d="M216.5,196.8c0.7-10.4,4.5-38.3,14.5-66.7c37.5-2.8,49.4,7.4,57.6,15.9c6.6,6.8,15.4,20.3,19,26.1l-4.5,34.1
			L216.5,196.8z"/>
		<path class="st0" d="M304.4,207.8l-89.5-9.7l0.1-1.4c0.7-11,4.7-39.1,14.6-67.1l0.3-0.9l1-0.1c40.1-3,51.8,9.1,58.8,16.4
			c7.5,7.7,17.3,23.3,19.2,26.4l0.3,0.5L304.4,207.8z M218.1,195.5l83.7,9.1l4.2-32.1c-5.1-8.3-13-19.7-18.5-25.4
			c-6.6-6.8-17.5-18.1-55.4-15.5C223,157.7,219.1,183.9,218.1,195.5z"/>
	</g>
	<g>
		<path class="st1" d="M147.3,155.6c-2.2,5.5-7.2,19.9-9.9,33.5c14.5,1.2,47.1,4,61.9,5.1c5.1-25.3,17.3-57.1,18.7-60.8
			s-6.3-1.7-20.8,1.3C183.6,137.6,165.1,144.6,147.3,155.6z"/>
		<path class="st0" d="M200.5,195.8l-1.3-0.1c-10.7-0.8-30.6-2.5-46.6-3.8c-6-0.5-11.4-1-15.4-1.3l-1.7-0.1l0.3-1.6
			c2.5-12.8,7.4-27.2,10-33.8l0.2-0.5l0.4-0.3c16-9.9,34.8-17.8,50.4-21.1c1.5-0.3,2.9-0.6,4.2-0.9c12.3-2.6,16.3-3.3,18-1.3
			c0.5,0.5,0.9,1.5,0.3,2.9l-0.1,0.4c-4.1,10.7-14,38.1-18.5,60.2L200.5,195.8z M139.2,187.7c3.8,0.3,8.5,0.7,13.7,1.1
			c15.3,1.3,34.2,2.9,45.2,3.7c4.6-22,14.3-48.7,18.4-59.3l0.1-0.3c-1.8-0.4-8.2,1-14.9,2.4c-1.3,0.3-2.7,0.6-4.2,0.9
			c-15.1,3.2-33.4,10.8-49,20.4C146,163,141.7,175.8,139.2,187.7z"/>
	</g>
	<g>
		<path class="st1" d="M313.9,210.4c6.8-2.6,6.8-8.8,5.7-11.1c-1.4-3.1-7.7-3.1-16.2-3.1c1.1-6.5-2.3-11.1-4.8-15
			c-2.6-4-20.4-4.3-30.4-1.4c-9.9,2.8-16.2,11.9-17.3,17.6c-1.1,5.7,0.9,10.2,10.5,10.5C271.1,208.2,303.4,210.2,313.9,210.4z"/>
		<path class="st0" d="M314.2,211.9h-0.3c-5.9-0.1-18.5-0.8-30.6-1.4c-9.1-0.5-17.7-0.9-21.9-1.1c-5.1-0.2-8.5-1.4-10.5-3.9
			c-1.6-2.1-2.1-4.9-1.5-8.4c1.1-6,7.6-15.7,18.4-18.8c9.7-2.8,28.8-3,32.1,2l0.6,0.9c2.3,3.5,5,7.7,4.7,13.5c8.3,0,14.2,0.2,15.9,4
			c0.8,1.6,1,4.4,0,7.1c-0.8,1.9-2.5,4.5-6.5,6L314.2,211.9z M283.8,179.4c-5.1,0-10.7,0.6-15.2,1.9c-9.4,2.7-15.3,11.4-16.2,16.4
			c-0.5,2.6-0.2,4.6,0.9,6c1.4,1.7,4.1,2.6,8.2,2.8c4.3,0.1,12.9,0.6,22,1.1c11.3,0.6,24.2,1.3,30.2,1.4c2.2-0.9,3.8-2.3,4.5-4.2
			c0.8-2,0.5-3.9,0.1-4.7c-1-2.2-7.7-2.2-14.8-2.2h-1.8l0.3-1.8c0.9-5.5-1.7-9.5-4-13.1l-0.6-0.9
			C296.3,180.4,290.5,179.4,283.8,179.4z"/>
	</g>
	<g>
		<path class="st1" d="M720.8,239.4c6.8,6,11.6,23.3,13.9,34.4c0.6,4.8-2.3,10.8-14.8,15.3c2.3-5.1,2.3-19.9,2-26.7
			c-0.3-6.8-1.1-10.8-8.8-16.8c-6.1-4.8-15.6-12.4-19.6-15.6C700.3,231.2,715.3,234.6,720.8,239.4z"/>
		<path class="st0" d="M717.1,291.7l1.5-3.2c2-4.5,2.2-18,1.9-26c-0.3-6.1-0.8-9.9-8.2-15.7c-6.2-4.9-15.9-12.7-19.6-15.6l1.2-2.6
			c3.5,0.6,21.5,4,28,9.7l0,0c7.8,6.9,12.7,26.9,14.4,35.2v0.1c1.2,9.3-9.4,14.6-15.8,16.9L717.1,291.7z M699.3,232.7
			c4.5,3.6,10.5,8.4,14.7,11.7c8.3,6.5,9.1,11.1,9.4,17.9c0,0.7,0.7,15.9-1.2,24.2c7.7-3.3,11.5-7.7,11-12.5
			c-1.3-6.3-6.1-27.1-13.4-33.5C716,237.2,706.8,234.4,699.3,232.7z"/>
	</g>
	<path class="st0" d="M822.1,416.2L822.1,416.2l-108.6-16l0.2-3l32.2-1.4h0.1l112.9,15.9l-0.1,3L822.1,416.2z M729.5,399.5
		l92.8,13.7l19.8-0.8l-96.4-13.6L729.5,399.5z"/>
	
		<rect x="130.1" y="266" transform="matrix(0.2484 -0.9687 0.9687 0.2484 -290.3176 429.5159)" class="st0" width="3" height="271.7"/>
</g>
<rect id="adaptive-none" x="314.6" y="122.9" transform="matrix(0.2487 -0.9686 0.9686 0.2487 -197.65 643.72)" class="st0" width="3" height="652.7"/>
</svg>
