<svg viewBox="0 0 550 192.5313" width="550" height="192.5313">
                                <g>
                                    <path d="M111.6794,0.0336c3.8219,3.9915,7.6886,8.0298,12.0389,12.5732c-1.4291,0-2.2748-0.0001-3.1206,0              c-23.9262,0.0031-47.8544-0.1794-71.7779,0.0766c-15.1854,0.1625-26.3112,7.5446-32.7657,21.1675              c-10.511,22.1844,4.2282,48.344,28.6655,51.1881c4.867,0.5664,9.8188,0.4063,14.8974,0.587c0-2.1422,0-3.818,0-5.7949              c-2.5645,0-5.0275,0.1633-7.4606-0.0369c-4.0045-0.3295-8.1391-0.3698-11.9557-1.455C27.0506,74.6,17.6217,62.2568,18.3833,47.7562              C19.1789,32.607,29.7149,20.9888,44.0348,18.697c1.5397-0.2464,3.1096-0.4291,4.6656-0.4308              c26.3188-0.0275,52.6377-0.0217,78.9565-0.0232c0.4109,0,0.8218,0,1.452,0c3.3846,3.5406,6.8385,7.1537,10.7068,11.2003              c-1.3388,0-2.1893,0-3.0397,0c-29.2065-0.0017-58.413-0.0212-87.6195,0.007c-7.5811,0.0073-13.3527,3.4487-17.0843,9.9404              c-7.2735,12.6533,1.5188,28.4386,16.212,29.2093c3.6866,0.1934,7.3921,0.0289,11.391,0.0289c0-7.5589,0-14.9079,0-22.8688              c12.5097,9.8364,24.5307,19.2884,36.7546,28.9c-0.5778,0.9079-1.0525,1.7424-1.6102,2.5172              c-8.2131,11.4102-19.2674,18.4759-33.1846,20.3104c-11.118,1.4655-22.2888,1.1687-32.7274-3.8              C12.7489,85.9964,3.0331,73.2365,0.4925,55.5652C-3.275,29.3594,14.9845,4.8525,41.0504,0.5751              c2.1882-0.3591,4.426-0.5806,6.6414-0.5856c20.791-0.0465,41.5821-0.0323,62.3731-0.0318              C110.5554-0.0424,111.0459,0.0026,111.6794,0.0336z"></path>
                                    <path d="M549.9929,0.0853c0,4.25,0,8.253,0,12.4008c-135.4739,0-270.8182,0-406.3776,0              c-3.7972-3.9671-7.7057-8.0504-11.8699-12.4008C271.3507,0.0853,410.5534,0.0853,549.9929,0.0853z"></path>
                                    <path d="M549.9999,18.3832c0,3.7322,0,7.2435,0,10.9106c-130.1217,0-260.1211,0-390.3176,0              c-3.2878-3.4421-6.6906-7.0044-10.4217-10.9106C283.0783,18.3832,416.4203,18.3832,549.9999,18.3832z"></path>
                                    <path d="M103.3828,45.8111c12.7473,10.0263,25.0454,19.6995,37.2907,29.3309c-1.4212,31.6796-30.0345,65.2804-71.8789,64.5107              c-6.1175-4.7665-12.4616-9.7094-19.1452-14.9169c2.4202-0.6335,4.4141-1.0401,6.3322-1.6751              c25.3059-8.3773,40.9899-25.4618,46.3291-51.6393c0.9115-4.4689,0.8459-9.1533,1.0397-13.7462              C103.5094,53.9081,103.3828,50.1289,103.3828,45.8111z"></path>
                                    <path d="M391.3504,137.01c-0.2615,1.1439-0.4752,2.0789-0.7403,3.2387c-9.5276,0-19.0326,0-28.7359,0              c-0.7023-4.3321-1.2384-8.6507-2.135-12.8932c-0.9492-4.4914-1.8979-9.0354-3.4655-13.3313              c-2.2556-6.1818-6.9489-8.8556-13.9674-8.5807c-0.2753,0.9237-0.6228,1.9098-0.8621,2.9214              c-1.608,6.7997-3.2017,13.6029-4.775,20.4108c-0.2023,0.8755-0.3521,1.7829-0.3667,2.6781              c-0.0357,2.1898,0.7669,3.3423,2.8957,4.0352c1.3235,0.4307,2.714,0.6564,4.0753,0.9701c0.7856,0.181,1.5731,0.3537,2.4702,0.555              c-0.3234,1.2077-0.5927,2.2139-0.8778,3.2783c-13.7278,0-27.2915,0-41.1219,0c0.2727-1.1751,0.4892-2.1078,0.7584-3.2676              c1.9101-0.2578,3.8481-0.5265,5.7882-0.7796c4.1126-0.5366,6.4088-2.8992,7.3368-6.9016              c2.4509-10.5696,4.9988-21.1169,7.5145-31.6715c1.7153-7.1965,3.4489-14.3886,5.1599-21.5862              c1.0016-4.2133,0.051-5.9485-4.056-7.2624c-1.622-0.5189-3.299-0.866-5.1245-1.3359c0.2481-1.1056,0.4588-2.0446,0.7217-3.2162              c13.6234,0,27.2623,0,41.168,0c-0.2185,1.0418-0.426,2.0311-0.6677,3.1833c-2.1552,0.3883-4.2436,0.7738-6.3354,1.1394              c-3.2285,0.5643-5.4613,2.3178-6.2552,5.5398c-2.0847,8.4604-4.091,16.94-6.1188,25.4143              c-0.0722,0.3017-0.0417,0.6278-0.0721,1.1796c4.4916,0.2702,8.575-0.3612,12.1333-3.2463              c5.2031-4.2186,9.1802-9.4182,12.4566-15.2057c1.6222-2.8653,3.1584-5.7939,4.9915-8.521              c1.5523-2.3092,3.2843-4.5662,5.2743-6.4997c4.3291-4.2062,9.6525-5.1082,15.3732-3.7095              c3.7376,0.9139,5.9106,3.5041,6.5268,7.2515c0.6129,3.7282-0.2014,7.1158-3.3923,9.461              c-3.1236,2.2959-6.6506,2.5412-10.0348,0.7745c-1.7711-0.9246-3.1996-2.5317-4.715-3.9052              c-0.7107-0.6441-1.2611-1.4646-2.1716-2.5468c-1.3855,1.8914-2.6464,3.486-3.7693,5.1723              c-2.2816,3.4264-4.4299,6.9421-6.7435,10.3462c-2.1897,3.2219-4.7948,6.0832-8.0512,8.2893              c-0.4736,0.3208-0.9886,0.5809-1.9016,1.1115c1.2104,0.7051,1.6982,1.1172,2.2604,1.2974              c7.2487,2.3221,11.8004,7.3567,14.1741,14.3835c1.4976,4.4333,2.6138,8.995,3.9033,13.4985              c0.1583,0.5529,0.3316,1.1014,0.4947,1.653c1.0998,3.7197,3.4866,5.844,7.4503,6.1091              C388.9476,136.5168,390.0608,136.796,391.3504,137.01z"></path>
                                    <path d="M243.837,67.5062c0.2993-1.2478,0.509-2.1226,0.7754-3.2332c23.5903,0,47.2136,0,71.2588,0              c-1.4798,6.3054-2.9481,12.5615-4.4398,18.9179c-1.3205,0-2.5169,0-3.3908,0c-1.3055-3.0516-2.3253-6.0075-3.7901-8.724              c-2.1453-3.9786-5.4667-6.1663-10.2375-6.0624c-6.5877,0.1434-13.1808,0.036-20.1633,0.036              c-2.3564,9.8429-4.7363,19.7843-7.2502,30.2852c5.4175-0.2067,10.4947,0.6622,15.3317-1.5934              c5.0138-2.338,7.0588-7.1639,9.6659-11.6813c1.0896,0,2.2115,0,3.6975,0c-2.538,10.587-5.0321,20.9912-7.5391,31.4489              c-1.2456,0-2.3007,0-3.5637,0c-0.2062-1.9188-0.3861-3.8548-0.6271-5.7832c-0.6932-5.5478-3.1044-7.7853-8.7612-7.9848              c-2.9581-0.1043-5.9229-0.0184-9.1995-0.0184c-0.4121,1.6441-0.8417,3.2827-1.2325,4.9305              c-1.4987,6.319-3.0295,12.631-4.4444,18.9687c-0.3532,1.5823-0.4608,3.2544-0.4241,4.8794              c0.0439,1.9424,1.1435,3.201,3.1036,3.6196c0.4833,0.1032,0.9618,0.338,1.441,0.334c5.4338-0.0449,10.8719-0.0139,16.2993-0.2357              c3.3211-0.1357,6.1267-1.8058,8.6798-3.839c4.2695-3.4,7.4629-7.6472,9.7766-12.569c0.2794-0.5943,0.5028-1.2147,0.7624-1.8187              c0.0286-0.0664,0.1249-0.1038,0.3091-0.2481c0.9798,0,2.0768,0,3.3943,0c-1.8756,7.8327-3.69,15.4102-5.5438,23.152              c-23.7225,0-47.338,0-71.2286,0c0.2751-1.1762,0.4936-2.1104,0.7629-3.2622c1.5885-0.1974,3.2029-0.4171,4.8219-0.5956              c5.0325-0.5546,7.1547-2.4037,8.33-7.3116c2.6228-10.9527,5.2442-21.9057,7.8578-32.8606              c1.6025-6.7169,3.1946-13.4363,4.7818-20.1568c1.008-4.2683-0.0168-6.0719-4.2651-7.3677              C247.2339,68.2595,245.6331,67.946,243.837,67.5062z"></path>
                                    <path d="M549.0129,137.0002c0.2578,1.1176,0.4752,2.0602,0.7512,3.2565c-14.121,0-28.0816,0-42.2684,0              c-0.244-0.9549-0.4996-1.9548-0.833-3.2597c1.371-0.2385,2.5569-0.4315,3.7371-0.6546c0.8896-0.1682,1.7802-0.3429,2.6559-0.5705              c3.5705-0.9283,4.7634-2.7914,3.9656-6.3729c-0.7861-3.529-1.6723-7.0359-2.5228-10.5505              c-0.3079-1.2722-0.6401-2.5386-1.0109-4.0043c-9.6443,0-19.2443,0-29.2956,0c-2.7788,4.8643-5.8258,9.8465-8.5044,15.019              c-1.5977,3.0853-0.7228,4.6455,2.6979,5.7026c2.0951,0.6474,4.2828,0.9957,6.6447,1.5268              c-0.2505,1.1398-0.4697,2.1378-0.7071,3.2184c-10.6984,0-21.2076,0-31.8632,0c0.2476-1.1424,0.4522-2.0864,0.6802-3.1386              c0.7406-0.207,1.4258-0.518,2.1321-0.5771c6.1099-0.5112,10.339-3.9343,13.6211-8.7754c2.726-4.0209,5.3827-8.0891,8.0386-12.1567              c10.7135-16.4077,21.4146-32.8234,32.1209-49.2359c0.4495-0.6891,0.9041-1.3747,1.4604-2.2201c3.1753,0,6.4287,0,9.8329,0              c1.5579,6.4912,3.0966,12.8673,4.6177,19.2476c3.6592,15.347,7.3264,30.6921,10.9529,46.0468              c0.8935,3.783,3.0179,6.0943,7.014,6.5388C544.8896,136.2582,546.8292,136.6496,549.0129,137.0002z M505.7718,82.4083              c-0.1983-0.045-0.3966-0.0901-0.5949-0.1351c-5.7404,9.043-11.4809,18.0859-17.3793,27.3775c8.4035,0,16.3406,0,24.4915,0              C510.0795,100.4145,507.9257,91.4114,505.7718,82.4083z"></path>
                                    <path d="M233.4958,86.6186c-1.3327,0-2.4551,0-3.4561,0c-1.029-3.2925-1.9235-6.5262-3.0687-9.6687              c-0.613-1.682-1.5839-3.2521-2.5251-4.7923c-1.3846-2.2658-3.477-3.5117-6.1425-3.569c-6.7605-0.1454-13.5224-0.225-20.284-0.3186              c-0.3206-0.0044-0.6429,0.1098-1.2094,0.2138c-0.812,3.27-1.6627,6.5988-2.4639,9.9394              c-3.9493,16.4671-7.8848,32.9375-11.8267,49.4064c-1.3835,5.7801-0.5725,7.0395,5.378,8.2839              c1.4277,0.2986,2.8652,0.5507,4.5298,0.8684c-0.259,1.2132-0.4726,2.2132-0.713,3.339c-14.1436,0-28.1211,0-42.3064,0              c0.285-1.2077,0.5226-2.2148,0.7815-3.312c2.1394-0.3467,4.1539-0.7452,6.187-0.9872c3.8859-0.4627,5.986-2.7158,6.8539-6.4051              c1.7505-7.4416,3.5682-14.8673,5.3397-22.304c2.4193-10.1559,4.8211-20.316,7.2326-30.4738              c0.0569-0.2399,0.1571-0.4701,0.2066-0.7111c0.9085-4.4236-0.1493-6.2007-4.5373-7.4714              c-1.4873-0.4307-3.0168-0.7162-4.6976-1.1078c0.2693-1.1576,0.502-2.1583,0.7718-3.3179c23.7585,0,47.3815,0,71.297,0              C237.0412,71.7739,235.2772,79.1601,233.4958,86.6186z"></path>
                                    <path d="M464.0183,91.678c-1.4862,0-2.707,0-4.1892,0c-0.1712-2.7918-0.2042-5.5644-0.5515-8.2972              c-0.2878-2.2649-0.7389-4.5547-1.4866-6.7055c-1.3047-3.7526-4.0714-6.134-7.9105-7.1614              c-6.4002-1.7127-12.4504-0.7995-17.967,2.8563c-2.0447,1.355-4.0624,2.9055-5.6713,4.7361              c-9.6705,11.0032-14.84,23.8272-14.6224,38.5363c0.1505,10.171,8.188,17.7214,18.3419,17.868              c6.2817,0.0907,11.8791-1.8337,16.7463-5.6711c3.0942-2.4396,5.8958-5.2496,9.0796-8.1197c1.4437,0,3.2873,0,5.5494,0              c-2.5352,3.7937-5.1763,7.0212-8.2967,9.8152c-8.1956,7.3381-17.7459,11.1778-28.8492,10.9421              c-5.0558-0.1073-10.0325-0.5789-14.7693-2.5135c-10.4121-4.2525-15.8541-12.2695-16.3864-23.2122              c-0.9216-18.9438,8.2968-32.7464,23.5112-42.9153c9.5032-6.3517,20.2211-8.6679,31.5985-7.5148              c4.8689,0.4935,9.5172,1.9112,13.8964,4.6808c1.3528-1.5849,2.6713-3.1297,4.0763-4.7759c1.3672,0,2.8036,0,4.5066,0              C468.3976,73.4796,466.2292,82.4906,464.0183,91.678z"></path>
                                    <path d="M433.9154,168.6763c1.9362,0,3.4975,0,5.1626,0c0.0833,0.4342,0.1692,0.8826,0.2658,1.3866              c0.2687-0.0566,0.5154-0.0626,0.7187-0.1594c0.8902-0.4235,1.7319-0.9774,2.6563-1.2957c4.3887-1.5114,7.7433,0.7045,7.8015,5.2869              c0.0417,3.28-0.8743,6.3477-3.0251,8.9392c-3.0023,3.6175-6.2493,4.3724-12.1164,2.6767c-0.5946,2.2727-1.1889,4.5442-1.8252,6.976              c-1.7086,0-3.394,0-5.3478,0C430.11,184.5459,431.9973,176.6754,433.9154,168.6763z M436.1489,182.0998              c2.8897,1.1815,5.192,0.7287,6.7922-1.1222c1.8661-2.1584,2.3012-5.7972,0.9492-8.2826c-1.9203-1.1983-3.7045-0.5413-5.6512,0.5954              C437.5648,176.1322,436.8691,179.0642,436.1489,182.0998z"></path>
                                    <path d="M363.3122,186.0838c-1.756,0-3.2931,0-5.1548,0c0.7509-3.3869,1.4651-6.6087,2.1794-9.8305              c-0.1589-0.0782-0.3178-0.1564-0.4767-0.2346c-1.7156,2.0607-3.4312,4.1214-5.1758,6.217c-0.7555,0-1.4768,0-2.4011,0              c-0.6916-2.2733-1.376-4.5235-2.0605-6.7737c-0.1604-0.0264-0.3208-0.0528-0.4813-0.0793              c-0.8834,3.5005-1.7668,7.0009-2.6891,10.6558c-1.5864,0-3.1989,0-5.0277,0c1.3856-5.7737,2.7562-11.4845,4.1493-17.2894              c2.0014,0,3.8666,0,5.9185,0c0.8271,2.549,1.6715,5.1515,2.6564,8.1868c2.4411-2.9638,4.5729-5.5521,6.754-8.2003              c1.9149,0,3.8602,0,5.9628,0C366.0757,174.5412,364.7213,180.1982,363.3122,186.0838z"></path>
                                    <path d="M59.8624,38.5727c0-2.1635,0-4.1142,0-6.5476C72.6172,42.0699,85.0841,51.888,97.5663,61.7183c0,2.0447,0,4.0069,0,6.5478              C84.8422,58.2453,72.4009,48.4472,59.8624,38.5727z"></path>
                                    <path d="M141.1723,61.7078c0,2.1429,0,4.0948,0,6.5482c-12.794-10.0774-25.2911-19.921-37.7197-29.7107c0-2.1451,0-4.0916,0-6.544              C116.2529,42.0824,128.7553,51.9288,141.1723,61.7078z"></path>
                                    <path d="M461.7822,168.7377c-0.7133,3.1559-1.3582,6.0095-2.0424,9.0369c3.2316-3.2669,6.2835-6.352,8.9897-9.0878              c2.2828,0,3.8392,0,5.6955,0c-1.389,5.8321-2.7464,11.5316-4.1334,17.3548c-1.7026,0-3.3044,0-5.1655,0              c0.7523-3.3121,1.4713-6.4776,2.1821-9.6069c-3.427,3.3104-6.7966,6.5654-10.0107,9.6702c-1.7383,0-3.1226,0-4.7994,0              c1.3978-5.864,2.7596-11.5768,4.1399-17.3672C458.3363,168.7377,459.8668,168.7377,461.7822,168.7377z"></path>
                                    <path d="M489.4349,174.7033c0.384-2.022-0.6484-2.8059-2.1064-2.7926c-2.5071,0.0229-5.0116,0.327-7.7502,0.5304              c0.1735-0.9668,0.3817-2.1268,0.6016-3.3517c4.027-0.9875,7.9158-1.4258,11.8409-0.4001c2.5484,0.6659,3.6605,2.4608,3.0821,5.0499              c-0.9119,4.0813-1.94,8.1367-2.9467,12.3186c-1.6838,0-3.3069,0-4.9594,0c-0.1284-0.4291-0.2647-0.8845-0.4294-1.4348              c-0.3575,0.1598-0.6428,0.3022-0.9388,0.4171c-1.3714,0.532-2.7057,1.2584-4.1277,1.5396c-2.6645,0.5271-4.9742-0.6635-5.784-2.697              c-0.8252-2.0723-0.0523-5.0609,2.0415-6.3375c1.5719-0.9583,3.4251-1.5668,5.2327-1.9991              C485.1674,175.0734,487.2356,174.9824,489.4349,174.7033z M488.7479,177.5857c-2.1368,0.4165-3.8307,0.5751-5.4035,1.0973              c-1.9063,0.6329-2.1991,1.6255-1.5063,3.9279c2.2235,1.1604,4.1541,0.4539,6.0279-1.0315              C488.1129,180.4616,488.3554,179.3632,488.7479,177.5857z"></path>
                                    <path d="M385.1649,186.1368c-1.754,0-3.2296,0-4.8476,0c-0.1627-0.451-0.3382-0.9375-0.5278-1.4634              c-0.2976,0.0962-0.534,0.1531-0.7546,0.2472c-1.2036,0.5133-2.3618,1.1916-3.6125,1.5238              c-2.9509,0.7839-5.6487-0.3604-6.4978-2.5862c-0.9325-2.4443,0.2112-5.7228,2.9191-6.8389              c2.4612-1.0144,5.1934-1.3875,7.8215-1.9746c0.8609-0.1923,1.7701-0.1691,2.6136-0.2407c0.2823-2.1174,0.0164-2.725-1.6975-2.8658              c-1.699-0.1395-3.4349,0.0432-5.1436,0.2019c-0.8651,0.0804-1.7061,0.4198-2.9198,0.7365c0.2659-1.434,0.4808-2.5933,0.7029-3.791              c4.0553-0.9942,7.9466-1.4167,11.8692-0.3859c2.4433,0.6421,3.6133,2.4307,3.0827,4.8346              C387.2546,177.6932,386.2024,181.8223,385.1649,186.1368z M374.7267,182.3991c2.3955,1.218,3.376,1.0999,6.1976-0.8581              c0.2016-1.0519,0.4343-2.2661,0.6725-3.5093C376.2441,177.6491,374.0718,179.1024,374.7267,182.3991z"></path>
                                    <path d="M249.9081,186.0901c-1.8575,0-3.4882,0-5.1719,0c-0.0548-0.4283-0.1125-0.8796-0.1766-1.3803              c-0.3317,0.0701-0.5736,0.0871-0.7885,0.1722c-1.4442,0.5716-2.8371,1.3656-4.333,1.692c-2.4535,0.5352-4.9513-0.6555-5.7335-2.427              c-0.9184-2.0798-0.1371-5.3038,1.9802-6.6c1.5703-0.9613,3.4249-1.5728,5.2332-2.0028c2.045-0.4862,4.1799-0.5955,6.2809-0.8694              c0.3942-1.8084-0.501-2.6447-1.8583-2.7274c-1.7856-0.1087-3.5976,0.0791-5.3881,0.2475c-0.8625,0.0812-1.7018,0.41-2.8142,0.6936              c0.2548-1.3464,0.4618-2.4403,0.7037-3.719c4.2345-1.134,8.4151-1.6713,12.609-0.1723c2.0069,0.7173,2.7518,1.9705,2.3045,4.331              C251.9477,177.5921,250.8789,181.8066,249.9081,186.0901z M245.5672,181.5835c0.239-1.0341,0.5212-2.2547,0.9298-4.0221              c-2.1975,0.4539-3.9861,0.6282-5.6274,1.2141c-1.8534,0.6617-2.1246,1.9206-1.197,3.8917              C242.2341,183.4704,242.9112,183.3586,245.5672,181.5835z"></path>
                                    <path d="M191.9967,178.3455c-4.4155,0-8.6081,0-12.7674,0c-0.4118,2.2101,0.0634,3.2889,1.8301,4.0286              c1.9867,0.8319,4.0314,0.7609,6.0474,0.0826c1.1652-0.3921,2.2986-0.8784,3.7969-1.4579              c-0.2792,1.4306-0.5191,2.6604-0.8056,4.1287c-4.2263,1.7162-8.5277,2.3278-12.8572,0.3978              c-3.4333-1.5305-4.6146-5.2014-3.3423-9.5779c1.8563-6.3853,9.8653-9.8883,15.8451-6.9303              c2.4152,1.1947,3.4455,3.4758,2.9589,6.7003C192.5823,176.5139,192.2876,177.2842,191.9967,178.3455z M187.1325,175.138              c0.3363-2.2822-0.2215-3.2869-1.9087-3.6779c-2.4515-0.5682-4.6682,0.8407-5.5465,3.6779              C182.2109,175.138,184.6856,175.138,187.1325,175.138z"></path>
                                    <path d="M427.6173,178.3796c-4.8321,0-9.0954,0-13.3444,0c-0.0938,2.6104,0.6176,3.9362,2.9163,4.2226              c1.9686,0.2453,4.0433-0.1454,6.0418-0.4476c0.9348-0.1413,1.8006-0.7376,3.0156-1.266c-0.3491,1.59-0.6408,2.9183-0.9351,4.2585              c-3.7931,1.606-7.575,2.034-11.4443,0.9436c-3.9554-1.1147-5.7411-4.3987-5.0021-8.9434              c1.1533-7.093,10.003-11.4447,16.3599-8.0395c1.5528,0.8318,2.6161,2.1042,2.6839,3.8768              C427.9734,174.6706,427.7394,176.3679,427.6173,178.3796z M414.9208,175.1633c2.6423,0,5.0569,0,7.4435,0              c0.3659-2.3054-0.1402-3.2793-1.8083-3.6948C418.1398,170.8666,415.8735,172.2604,414.9208,175.1633z"></path>
                                    <path d="M328.5539,178.345c-4.5711,0-8.827,0-13.0589,0c-0.2212,2.3809,0.3558,3.4219,2.2771,4.1337              c2.2804,0.8448,4.5312,0.5233,6.7357-0.3351c0.8838-0.3441,1.7473-0.7399,2.9851-1.2678              c-0.4197,1.6726-0.7485,2.9834-1.0791,4.3009c-3.82,1.5717-7.5822,1.9997-11.4436,0.8938              c-3.1194-0.8933-5.0814-3.2983-5.114-6.4861c-0.0411-4.0215,1.3873-7.4595,4.9334-9.6228              c3.6574-2.2312,7.5892-2.5962,11.5605-0.8394c2.2456,0.9934,2.9029,3.0542,2.8734,5.3009              C329.2077,175.6237,328.8281,176.8196,328.5539,178.345z M323.5288,175.1795c0.3117-2.5647-0.255-3.4776-2.1692-3.7634              c-2.5657-0.3831-4.6617,1.1127-5.0894,3.7634C318.6494,175.1795,321.0061,175.1795,323.5288,175.1795z"></path>
                                    <path d="M260.7863,186.0896c-1.7535,0-3.3769,0-5.3363,0c1.3772-5.8043,2.7289-11.5015,4.1091-17.3183c1.8107,0,3.4998,0,5.3435,0              c-0.4078,1.9386-0.8061,3.8317-1.2564,5.972c2.2565,0,4.3364,0,6.6728,0c0.5099-1.8826,1.0391-3.8364,1.6134-5.9568              c1.6508,0,3.3369,0,5.3206,0c-1.3749,5.7837-2.7325,11.4942-4.1091,17.2851c-1.8608,0-3.5528,0-5.3667,0              c0.5498-2.4841,1.0748-4.8566,1.6563-7.4843c-2.3614,0-4.3765,0-6.7052,0C262.117,180.9492,261.4868,183.3837,260.7863,186.0896z"></path>
                                    <path d="M153.6248,168.7174c1.9653,0,3.5978,0,5.3372,0c-0.4265,2.0236-0.8283,3.93-1.2767,6.0575c2.295,0,4.3852,0,6.6939,0              c0.5213-1.963,1.041-3.9202,1.5959-6.0098c1.7052,0,3.3944,0,5.3387,0c-1.3945,5.8385-2.7614,11.5611-4.1401,17.3329              c-1.8211,0-3.4495,0-5.3266,0c0.5316-2.4882,1.047-4.8999,1.6107-7.5385c-2.3831,0-4.4065,0-6.6783,0              c-0.6301,2.4364-1.2605,4.8743-1.9309,7.4665c-1.6997,0-3.3861,0-5.3468,0C150.8762,180.2567,152.2361,174.5477,153.6248,168.7174z              "></path>
                                    <path d="M515.0943,186.1117c-1.912,0-3.4597,0-5.3749,0c1.0609-4.5654,2.0864-8.9789,3.1672-13.6303c-1.7131,0-3.2141,0-4.8862,0              c-0.429,1.5002-0.8073,3.001-1.2917,4.4667c-0.488,1.4761-0.9268,3.0005-1.6586,4.3579c-2.0181,3.744-4.561,5.5937-9.304,4.7217              c0.2448-1.2351,0.4899-2.4716,0.7643-3.8561c3.0414-0.0303,4.1848-2.2024,4.9763-4.6106c0.9445-2.8736,1.7333-5.7982,2.6241-8.8178              c4.9039,0,9.8098,0,15.1086,0C517.8273,174.6044,516.4741,180.3023,515.0943,186.1117z"></path>
                                    <path d="M216.0289,168.6982c1.9026,0,3.5379,0,5.3365,0c-0.4926,2.3649-0.963,4.6233-1.4334,6.8817              c0.1853,0.1547,0.3707,0.3094,0.556,0.4641c0.9307-0.5175,1.9762-0.9036,2.761-1.588c0.8544-0.7452,1.4659-1.768,2.1846-2.6686              c2.2754-2.8511,3.9905-3.5022,7.846-2.9302c0.0187,0.2927,0.1083,0.6198,0.0457,0.9147c-0.2029,0.9565-0.4615,1.9012-0.7364,3.0011              c-3.3292-0.3103-4.299,2.5273-6.1351,4.5127c1.3067,2.8565,2.6271,5.7427,4.0318,8.8134c-1.9953,0-3.697,0-5.5901,0              c-1.0204-2.2621-2.058-4.5624-3.1275-6.9335c-0.9054,0-1.699,0-2.7277,0c-0.594,2.2801-1.1866,4.5547-1.8006,6.9115              c-1.7187,0-3.3402,0-5.3279,0C213.2827,180.2903,214.6319,174.5953,216.0289,168.6982z"></path>
                                    <path d="M529.0626,174.3947c0.8774,0.0669,1.5181,0.1377,2.1605,0.1595c0.9035,0.0306,1.8165-0.0496,2.7109,0.0491              c2.2579,0.2493,4.4998,0.6601,5.3114,3.2242c0.726,2.2936-0.3308,5.2791-2.5502,6.7142c-1.1986,0.775-2.6854,1.4444-4.0765,1.5185              c-3.842,0.2045-7.7021,0.0707-11.8194,0.0707c1.3994-5.8752,2.7582-11.5804,4.1396-17.3798c1.8373,0,3.5273,0,5.3484,0              C529.8907,170.5788,529.5119,172.3245,529.0626,174.3947z M527.0904,182.5822c5.0478,0.9665,7.0244-0.2997,6.2456-3.8858              c-1.5389-1.2704-3.2945-0.8723-5.1951-0.5975C527.7821,179.6304,527.4372,181.1022,527.0904,182.5822z"></path>
                                    <path d="M288.3162,168.7521c-0.4031,1.9089-0.7734,3.6621-1.2267,5.8087c1.3136,0,2.4311-0.0099,3.5482,0.0038              c0.6588,0.0081,1.3291-0.0159,1.9735,0.095c1.9041,0.3278,3.8803,0.7619,4.5333,2.8736c0.6679,2.16,0.2163,4.2318-1.2833,6.0164              c-1.421,1.6911-3.3241,2.4987-5.4307,2.5701c-3.6954,0.1253-7.3982,0.035-11.5762,0.035              c1.4033-5.934,2.7502-11.6291,4.1155-17.4026C284.8128,168.7521,286.4968,168.7521,288.3162,168.7521z M285.0935,182.995              c1.8147-0.1292,3.2912-0.0708,4.686-0.3799c1.3726-0.3041,2.2632-1.8332,1.9966-2.9899c-0.3154-1.3688-1.382-1.7216-2.6136-1.7557              c-0.9492-0.0263-1.8997-0.0053-2.9713-0.0053C285.8051,179.6687,285.4908,181.1381,285.0935,182.995z"></path>
                                    <path d="M196.0758,168.7156c5.5877,0,10.9938,0,16.6901,0c-0.2623,1.2013-0.4973,2.2782-0.7783,3.5651c-1.8771,0-3.6606,0-5.6049,0              c-1.1539,4.6937-2.2625,9.203-3.392,13.7977c-1.7153,0-3.3336,0-5.3285,0c1.0444-4.5146,2.067-8.9346,3.1523-13.6259              c-1.829-0.1075-3.5042-0.2059-5.4772-0.3219C195.5874,170.9739,195.8053,169.9663,196.0758,168.7156z"></path>
                                    <path d="M393.9003,186.0836c1.0768-4.5927,2.1029-8.9698,3.2032-13.663c-1.9178-0.0896-3.5971-0.1681-5.5514-0.2595              c0.3038-1.231,0.5698-2.3084,0.8506-3.4464c5.5599,0,10.9799,0,16.6906,0c-0.262,1.1543-0.5017,2.2101-0.7961,3.507              c-1.8998,0-3.6762,0-5.6275,0c-1.1675,4.74-2.2818,9.2636-3.4145,13.8619C397.5074,186.0836,395.8824,186.0836,393.9003,186.0836z"></path>
                                    <path d="M303.6116,186.0787c-1.8182,0-3.4318,0-5.4008,0c1.4005-5.8803,2.756-11.5717,4.1308-17.3443c1.7578,0,3.3741,0,5.3994,0              C306.3453,174.5964,304.9807,180.3284,303.6116,186.0787z"></path>
                                    <path d="M545.5745,186.0818c-1.9174,0-3.5441,0-5.412,0c1.4099-5.8918,2.7808-11.6205,4.1589-17.3795c1.8582,0,3.4914,0,5.4012,0              C548.3302,174.5358,546.9682,180.2425,545.5745,186.0818z"></path>
                                </g>
                            </svg>