{
  "title": "Ссылки на документы",
  "hint": "Загрузите несколько файлов с компьютера",
  "sort": "50",
  "js": [
    "/bitrix/admin/sprint.editor/assets/jquery.file-upload-9/vendor/jquery.ui.widget.js",
    "/bitrix/admin/sprint.editor/assets/jquery.file-upload-9/jquery.iframe-transport.js",
    "/bitrix/admin/sprint.editor/assets/jquery.file-upload-9/jquery.fileupload.js",
    "/bitrix/admin/sprint.editor/assets/bindWithDelay.js"
  ],
  "templates": [
    "item.html"
  ]
}