<?xml version="1.0" encoding="utf-8"?>
<!-- Generator: Adobe Illustrator 25.1.0, SVG Export Plug-In . SVG Version: 6.00 Build 0)  -->
<svg version="1.1" id="Layer_1" xmlns="http://www.w3.org/2000/svg" xmlns:xlink="http://www.w3.org/1999/xlink" x="0px" y="0px"
	 viewBox="0 0 65.8 10.3" style="enable-background:new 0 0 65.8 10.3;" xml:space="preserve" width="65.8" height="10.3">
<path id="Контур_21933" d="M30.3,0.2c1.6,0.2,2.8,1.5,2.9,3.1c0.1,1.3,0.1,2.5,0,3.8C33.1,8.5,32,9.7,30.6,10
	c-1,0.2-2,0.2-2.9-0.1c-1.2-0.4-2.1-1.5-2.2-2.8s-0.1-2.5,0-3.8c0.1-1.9,1.3-3,3.3-3.2c0,0,0.4,0,0.8,0C29.9,0.1,30.3,0.2,30.3,0.2z
	 M31.9,5.1c0,0,0-1.2,0-1.8c0-0.7-0.5-1.4-1.2-1.7c-0.7-0.3-1.4-0.3-2.1-0.2c-1.1,0.1-1.9,1-1.8,2.1c0,1.1,0,2.2,0,3.3
	c0,0.8,0.5,1.5,1.3,1.8c0.6,0.2,1.3,0.3,2,0.1c1.1-0.1,1.8-1,1.8-2.1C31.9,6.1,31.9,5.6,31.9,5.1L31.9,5.1z"/>
<path id="Контур_21934" d="M21.8,0.2c1.4,0.2,2.5,1.4,2.5,2.8c0.3,1.6-0.8,3.2-2.4,3.4c-0.2,0-0.5,0.1-0.7,0
	c-0.8,0-1.6,0-2.4,0c-0.3,0-0.4,0.1-0.4,0.4c0,0.9,0,1.8,0,2.7c0,0.4-0.1,0.5-0.5,0.5c-0.8,0-0.9,0-0.9-0.8V0.7c0-0.6,0-0.6,0.6-0.6
	c1.1,0,2.2,0,3.4,0C21.2,0.1,21.5,0.1,21.8,0.2z M18.3,3.3c0,0.5,0,1,0,1.5c0,0.3,0.1,0.4,0.4,0.4c0.8,0,1.5,0,2.3,0
	c1.1,0,1.9-0.8,2-1.9c0-0.2,0-0.3-0.1-0.5C22.7,2,22,1.4,21.2,1.4c-0.9,0-1.7,0-2.6,0c-0.3,0-0.3,0.1-0.3,0.3
	C18.3,2.2,18.3,2.7,18.3,3.3L18.3,3.3z"/>
<path id="Контур_21935" d="M57.3,0c0.4,0.1,0.3,0.3,0.1,0.6c-1.1,1.3-2.1,2.7-3.2,4c0.9,0.5,1.6,1.2,1.9,2.2
	c0.5,0.9,1,1.8,1.4,2.8c0.2,0.4,0.1,0.5-0.3,0.5h-0.4c-0.4,0.1-0.9-0.2-1-0.6c-0.4-0.9-0.9-1.7-1.2-2.6s-1.2-1.4-2.1-1.3
	c-1,0-1,0-1,1c0,1,0,1.9,0,2.9c0,0.5,0,0.6-0.6,0.6h-0.2c-0.6,0-0.6,0-0.6-0.6V0.7c0-0.6,0-0.6,0.7-0.6s0.7,0,0.7,0.6
	c0,1.1,0,2.2,0,3.3c0,0.3,0,0.4,0.4,0.4c0.5,0.1,1-0.2,1.2-0.6c0.7-1,1.6-1.9,2.3-2.9c0.3-0.3,0.5-0.6,0.8-0.9C56.2,0,57.3,0,57.3,0
	z"/>
<path id="Контур_21936" d="M65.7,2.8c-0.3,0.1-0.6,0.2-0.9,0.3c-0.2,0.1-0.4,0-0.5-0.2c-0.6-1.4-2.2-2-3.5-1.4
	c0,0-0.1,0-0.1,0.1c-0.9,0.3-1.5,1.2-1.4,2.2c0,0.9,0,1.9,0,2.8c-0.1,1.1,0.8,2.1,1.9,2.2c0.6,0.1,1.1,0.1,1.7-0.1
	c0.6-0.1,1.1-0.6,1.4-1.2c0.3-0.6,0.3-0.6,0.9-0.4c0.2,0.1,0.4,0.2,0.6,0.3c0,0.2-0.1,0.4-0.2,0.6C65,9.1,64,9.9,62.8,10
	c-0.8,0.1-1.6,0.1-2.4-0.1C59,9.6,58,8.5,57.9,7.1c-0.1-1.3-0.1-2.7,0-4.1c0.2-1.7,1.6-3,3.3-2.9c0.6-0.1,1.3,0,1.9,0.1
	c1.2,0.2,2.1,1.1,2.5,2.2C65.6,2.5,65.7,2.7,65.7,2.8L65.7,2.8z"/>
<path id="Контур_21937" d="M15.8,0.1c0.1,0,0.1,0.5,0.1,0.8c0,0.4,0,0.5-0.2,0.5c-1.2,0-2.8,0-4,0c-0.3,0-0.5,0.1-0.5,0.4
	c0,2.6,0,5.1,0,7.7c0,0.2,0.1,0.6-0.2,0.6h-1c-0.1,0-0.1-0.3-0.1-0.4c0-3.1,0-6.1,0-9.2c0-0.3,0.1-0.4,0.4-0.4c1.6,0,3.3,0,4.9,0
	L15.8,0.1z"/>
<path id="Контур_21938" d="M42.8,5.1V0.7c0-0.5,0-0.6,0.6-0.6h5.3c0.6,0,0.6,0,0.6,0.6s0,0.7-0.6,0.7c-1.4,0-2.7,0-4.1,0
	c-0.3,0-0.4,0.1-0.4,0.4c0,0.8,0,1.5,0,2.3c0,0.3,0.1,0.4,0.4,0.4c1,0,2.1,0,3.1,0c0.5,0,0.6,0.1,0.6,0.7c0,0.4-0.1,0.6-0.6,0.6
	c-1,0-2.1,0-3.1,0c-0.3,0-0.4,0.1-0.4,0.4c0,0.8,0,1.6,0,2.4c0,0.3,0.1,0.4,0.4,0.4c1.4,0,2.7,0,4.1,0c0.2,0,0.5-0.1,0.6,0.2
	s0.1,0.7,0,1c-0.1,0.1-0.2,0.1-0.3,0.1c-1.9,0-3.7,0-5.6,0C43,10.3,43,10,43,9.8C42.8,8,42.8,6.5,42.8,5.1z"/>
<path id="Контур_21939" d="M8.1,10.1c-0.5,0-0.7-0.1-0.8-0.6C7.1,8.9,6.8,8.4,6.6,7.8C6.5,7.6,6.4,7.4,6.2,7.4
	c-1.2,0-2.3,0-3.5,0c-0.2,0-0.4,0.1-0.5,0.3C2,8.4,1.7,8.9,1.5,9.5C1.4,9.9,1.2,10,0.7,10.1c-0.1,0-0.2,0-0.3,0
	C0,10.1-0.1,10,0.1,9.6c0.6-1.4,1.1-2.8,1.7-4.2C2.3,3.8,3,2.2,3.6,0.6C3.7,0.3,4,0,4.3,0.1c0.4,0,0.7,0,0.9,0.5
	c1.1,2.9,2.3,5.8,3.4,8.8C8.9,10.1,8.9,10.1,8.1,10.1z M4.4,1.9L2.7,6.3h3.4L4.4,1.9z"/>
<path id="Контур_21940" d="M38.7,5.7c0,1.3,0,2.6,0,3.8c0,0.4-0.1,0.6-0.5,0.6c-0.1,0-0.3,0-0.4,0c-0.4,0-0.5-0.2-0.5-0.5
	c0-1.2,0-2.3,0-3.5c0-1.5,0-2.9,0-4.4c0-0.3-0.1-0.4-0.4-0.4c-0.7,0-1.4,0-2.1,0c-0.5,0-0.5-0.3-0.5-0.7c0-0.4,0-0.6,0.5-0.6
	c2.1,0,4.3,0,6.4,0c0.5,0,0.5,0.3,0.5,0.6c0,0.4,0,0.7-0.5,0.6c-0.7,0-1.4,0-2.1,0c-0.3,0-0.4,0.1-0.4,0.4
	C38.7,3.1,38.7,4.4,38.7,5.7L38.7,5.7z"/>
</svg>
