<svg viewBox="0 0 211 426" width="211" height="426">
    <style type="text/css">
        .st3-0 {
        fill: #FFFFFF;
        stroke: #548CE1;
        stroke-width: 3;
        stroke-linecap: round;
        stroke-linejoin: round;
        stroke-miterlimit: 10;
        }

        .st3-1 {
        fill: #FFFFFF;
        stroke: #548CE1;
        stroke-width: 3;
        }

        .st3-2 {
        fill: #548CE1;
        }

        .st3-3 {
        fill: none;
        stroke: #548CE1;
        stroke-width: 3;
        stroke-linecap: round;
        stroke-linejoin: round;
        stroke-miterlimit: 10;
        }

        .st3-4 {
        fill: #FFFFFF;
        stroke: #548CE1;
        stroke-width: 3;
        stroke-linejoin: round;
        }

        .st3-5 {
        fill: none;
        stroke: #548CE1;
        stroke-width: 3;
        }

        .st3-7 {
        display: inline;
        }

        .st3-8 {
        fill: #FFFFFF;
        stroke: #F2994A;
        stroke-width: 3;
        }

        .st3-9 {
        fill: none;
        stroke: #F2994A;
        stroke-width: 3;
        }

        .st3-10 {
        display: inline;
        fill: #FFFFFF;
        stroke: #548CE1;
        stroke-width: 3;
        }
    </style>
    <g>
        <path class="st3-0" d="M142.9,174.1c-3.4-11.3-8.3-26.1-11-33.5l-21,8.5c2.1,7,8.9,36.8,18.9,42.5c4.2,2.4,38.1,19.9,38.1,19.9                            c4,4.8,6.4,5.5,12,8c6.2,2.8,7.8,3.1,12.5-0.5c3.7-2.9,6.2-0.3,6-5c-0.5-11.2-23.5-15-23.5-15L142.9,174.1z"></path>
        <path class="st3-0" d="M62.3,419.5c-15.5,1.6-17,2.4-32.9,2.4s0.1-4.2,16-15.2C61.3,395.6,62.3,419.5,62.3,419.5z"></path>
        <path class="st3-0" d="M90.6,420.8c15.5,1.6,17,2.4,32.9,2.4s-0.1-4.2-16-15.2C91.6,396.9,90.6,420.8,90.6,420.8z"></path>
        <path class="st3-0" d="M82,101.3c0,4.4,4.1,7.6,8.2,7.6c2,0,11-0.5,11.7,3.9S95,126.5,95,126.5H72.7H50.3c0,0-10.9-9.2-10.1-13.7                            c0.8-4.3,13.2-3.9,15.2-3.9c4.1,0,8.2-3.3,8.2-7.6V90.8c1.2,0.6,4.6,1.8,8.9,1.6c4.3-0.3,8.1-1.9,9.5-2.7V101.3z"></path>
        <path class="st3-0" d="M76.4,260c0.7,0.6,6.1,144.8,6.1,144.8c6.1,6.5,30.7,6.5,35.3,0.2c-4.9-52.2-9.5-185.9-9.9-185.9l-61.5,4                            c0,0-4.7,130.1-10,182.4c4.4,5.9,27.6,5.9,33.3,0C69.7,405.4,75.8,260.6,76.4,260z"></path>
        <path class="st3-0" d="M111.5,168.3l27.6-13.8c0,0-7.6-35.4-20.4-43.7c-3.4-2.2-6.3-3.3-9.8-3.1c-3.3,0.1-13.8,0-18,0                            c0,0-6.4,11.4-17.1,11.4c-13,0-15.9-11.4-15.9-11.4c-17.5,0-26,3-31.5,9c-8.5,5.8-16,40.3-16,40.3l28,9.5l2.4-19.8                            c7.9,19.8,6.6,87.6,6.6,87.6s-1.2,3,26.4,3s35.1-3,35.1-3s-2.7-66.6,0-87.6L111.5,168.3z"></path>
        <path class="st3-1" d="M83.3,406.5c3.7,5.3,30.8,7.8,36.1,0c-3.9-42.7-14.7-218.1-14.6-252.6c-0.1-2.7-0.4-8.6-0.5-10.4                            c-0.6-9-2.6-35.1-2.6-35.1h-5.8c-1.2,8.7-1.2,35.1-2,35.2c-9.7,1-25.5,1-35.5,0c-1.2-14.3-4.6-35.2-4.6-35.2h-7.9                            c0,1.2,1.5,26.2,1.5,41.7c0,1.4,0,2.6,0,4.3c0,4.2,0,11.5,0,11.5v20.5c-1.3,42.4-9.2,203.5-12,220c5,6.8,29.9,6.5,34.8,0L77,259.1                            L83.3,406.5z"></path>
        <path class="st3-0" d="M73.1,97.3c14.4,0,19.7-11.5,21.2-27.6c0.9-5.2,1.3-17.9,0-21.1c-2.8,3.1-15.4-1.6-18.8-4.7                            c-2.8-2.5-14.5,5.3-19.2,7.5c-3.8,1.8-6,3.8-4.6,18.3C53.3,85.8,58.6,97.3,73.1,97.3z"></path>
        <path class="st3-2" d="M81.1,68.4c1,0,1.9-0.8,1.9-1.9c0-1-0.8-1.9-1.9-1.9c-1,0-1.9,0.8-1.9,1.9S80.1,68.4,81.1,68.4z"></path>
        <path class="st3-2" d="M66.1,68.4c1,0,1.9-0.8,1.9-1.9c0-1-0.8-1.9-1.9-1.9c-1,0-1.9,0.8-1.9,1.9S65,68.4,66.1,68.4z"></path>
        <path class="st3-3" d="M72.7,73.7c0,1.8-0.1,2.5-0.1,3.5c0,0.8,0.1,2,2.8,1.1"></path>
        <path class="st3-3" d="M67.1,83.9c4.2,4.4,10.9,4.4,14.3,0"></path>
        <path class="st3-1" d="M61.6,35.4c-2.9,1.8-10.4,7.2-12.4,22.1l1.8-0.8c0.6-0.3,1.8-0.9,2.1-1.2c0.3-0.4,2.4,0,4.2-0.8                            c1.7-0.8,2.4-1.2,4.9-2c2.4-0.8,3.5-0.4,4.2-0.4h4.5l5.2,0.4h4.2l9.8,2.7l7.3,2C95.5,42.6,88,37.2,85,35.4                            c-2.9-1.8-7.8-2.9-11.7-2.9C69.4,32.5,64.5,33.6,61.6,35.4z"></path>
        <path class="st3-4" d="M48.9,59c-1.7,4.1-2.6,9,2,11.1c1-8.2,2.6-10.8,7.5-13.3s15-2.5,15-2.5S83.1,54,89,57.5s6.5,7.2,6.5,12.5                            c3.9-1.3,5.3-7.1,2.6-11.1c-2.6-3.9-6.5-6.4-11.1-7.4c-5.3-1.1-13.3-1.6-13.3-1.6s-8.7-0.3-14,1.6C55.1,53.2,50.1,56.2,48.9,59z"></path>
        <path class="st3-5" d="M60.2,35.8c2.8,2,3.6,13.5,3.2,15.1"></path>
        <path class="st3-5" d="M83.9,34.7c-2.8,2-3.5,14.4-3.1,16"></path>
        <path class="st3-0" d="M181.4,222c-4.5-0.6-7.5-2.5-7.5-10.5h-9l-1.5-21.5l11.4,8.3c0,0,26.5,3.2,27,14.5c0.2,4.7-1.4,6.7-5.9,8.2                            C191.4,222.6,187.9,222.9,181.4,222z"></path>
    </g>
    <g class="layer-1">
        <g>
            <path class="st3-1" d="M105.3,185c6.5-4.8,50.3-4.4,57.7,0c0.7,33,5.2,62.4,0,72.8c-4.1,8.3-18.4,12.5-21.6,14.1V344                              c-0.1,1.3-4.8,4.4-4.8,4.4s0,64.7,0,73.6h-2.4h-2.4v-73.6c0,0-4.2-3.1-4.8-4.4v-72.2c-3.2-1.6-17.5-5.8-21.6-14.1                              C100.2,247.4,104.6,218,105.3,185z"></path>
            <path class="st3-1" d="M167.7,208.9h-3.3l0.7,12.6h3.3L167.7,208.9z"></path>
            <path class="st3-1" d="M167.8,211.5l0.3,5.9h6.5c0,0-0.7-2.6-0.6-5.7c0-0.2-0.1-0.2-0.2-0.2H167.8z"></path>
            <path class="st3-1" d="M74,211.5h27.4l-0.3,5.9H74V211.5z"></path>
            <path class="st3-1" d="M101,208.9h3.3l-0.7,12.6h-3.3L101,208.9z"></path>
            <path class="st3-1" d="M126.9,271.7c1.8,1.3,11.7,1.6,14.4,0.3"></path>
            <line class="st3-5" x1="131.9" y1="348.4" x2="136.4" y2="348.4"></line>
        </g>
        <path class="st3-1" d="M13,257.5c-0.9-40.3-7.2-63-0.7-99.9l25.3,8.6c-4.9,28.8-9.1,67.3-9.5,91.1                            c1.6,3.2,2.8,7.4,3.2,11.7c1.1,11.4-2.8,21.1-8.9,21.5c-5.7,0.3-10.3-6.2-11.5-17.6C10.3,266.9,11.3,261.5,13,257.5z"></path>
    </g>
    <g class="layer-2">
        <g class="st3-7">
            <path class="st3-8" d="M105.3,185c6.5-4.8,50.3-4.4,57.7,0c0.7,33,5.2,62.4,0,72.8c-4.1,8.3-18.4,12.5-21.6,14.1V344                              c-0.1,1.3-4.8,4.4-4.8,4.4s0,64.7,0,73.6h-2.4h-2.4v-73.6c0,0-4.2-3.1-4.8-4.4v-72.2c-3.2-1.6-17.5-5.8-21.6-14.1                              C100.2,247.4,104.6,218,105.3,185z"></path>
            <path class="st3-8" d="M167.7,208.9h-3.3l0.7,12.6h3.3L167.7,208.9z"></path>
            <path class="st3-8" d="M167.8,211.5l0.3,5.9h6.5c0,0-0.7-2.6-0.6-5.7c0-0.2-0.1-0.2-0.2-0.2H167.8z"></path>
            <path class="st3-8" d="M74,211.5h27.4l-0.3,5.9H74V211.5z"></path>
            <path class="st3-8" d="M101,208.9h3.3l-0.7,12.6h-3.3L101,208.9z"></path>
            <path class="st3-8" d="M126.9,271.7c1.8,1.3,11.7,1.6,14.4,0.3"></path>
            <line class="st3-9" x1="131.9" y1="348.4" x2="136.4" y2="348.4"></line>
        </g>
        <path class="st3-10" d="M44.2,237.8c-14.8-12-34.8-43.7-33.9-56.7c0.5-7.6,1.1-17.4,1.9-23.5l25.3,9.2                            c-0.5,2.1-1.8,12.3-2.2,14.8c-1.3,9.7,12.6,30.7,17.7,44.6c3.1,0.9,10.1,5,12.4,7.5c7,7.3,8.2,13.8,5.7,19.4                            c-2.6,5.5-10.7,5.3-18-1.4C49.2,248.1,44.8,242.6,44.2,237.8z"></path>
    </g>
    <g class="layer-3">
        <g class="st3-7">
            <path class="st3-8" d="M105.3,185c6.5-4.8,50.3-4.4,57.7,0c0.7,33,5.2,62.4,0,72.8c-4.1,8.3-18.4,12.5-21.6,14.1V344                              c-0.1,1.3-4.8,4.4-4.8,4.4s0,64.7,0,73.6h-2.4h-2.4v-73.6c0,0-4.2-3.1-4.8-4.4v-72.2c-3.2-1.6-17.5-5.8-21.6-14.1                              C100.2,247.4,104.6,218,105.3,185z"></path>
            <path class="st3-8" d="M167.7,208.9h-3.3l0.7,12.6h3.3L167.7,208.9z"></path>
            <path class="st3-8" d="M167.8,211.5l0.3,5.9h6.5c0,0-0.7-2.6-0.6-5.7c0-0.2-0.1-0.2-0.2-0.2H167.8z"></path>
            <path class="st3-8" d="M74,211.5h27.4l-0.3,5.9H74V211.5z"></path>
            <path class="st3-8" d="M101,208.9h3.3l-0.7,12.6h-3.3L101,208.9z"></path>
            <path class="st3-8" d="M126.9,271.7c1.8,1.3,11.7,1.6,14.4,0.3"></path>
            <line class="st3-9" x1="131.9" y1="348.4" x2="136.4" y2="348.4"></line>
        </g>
        <path class="st3-10" d="M70,208c-32-10-64.3-7.4-57.2-50.3l11.3,3.8l13.8,4.9c-4.9,13,26.8,22.2,51.9,34.2                            c4.5,2.2,8.3,6.3,8.1,11.3c-0.2,8.2-6.9,7.7-11.9,8.3C80.5,220.8,71.7,219.4,70,208z"></path>
    </g>
</svg>