<?xml version="1.0" encoding="utf-8"?>
<!-- Generator: Adobe Illustrator 25.1.0, SVG Export Plug-In . SVG Version: 6.00 Build 0)  -->
<svg version="1.1" id="Layer_1" xmlns="http://www.w3.org/2000/svg" xmlns:xlink="http://www.w3.org/1999/xlink" x="0px" y="0px"
	 viewBox="0 0 46 36" style="enable-background:new 0 0 46 36;" xml:space="preserve" width="102" height="80">
<g id="ГОСТ" transform="translate(0)">
	<path id="Контур_26" d="M39.8,12.4c-0.3-0.2-0.5-0.3-0.7-0.4c-2.7-1.5-5.7-2.5-8.9-2.8C28.8,9,27.4,9,26,9.3
		c-3.3,0.8-5.9,3.4-6.6,6.8c-0.9,4,1.1,8,4.7,9.9c1.4,0.7,3,1.1,4.7,1c3.6-0.1,7.2-1.2,10.4-3c0.2-0.1,0.4-0.2,0.6-0.3
		c0,0.1,0,0.2,0,0.2c0,2.4,0,4.8,0,7.2c0,0.1-0.1,0.3-0.2,0.3c-5.5,3.1-11.6,4.7-17.9,4.6c-2,0-4.1-0.3-6.1-0.7
		c-1.3-0.2-2.6-0.6-3.9-1c-2.2-0.7-4.3-2-6-3.6c-1.7-1.5-3-3.3-4-5.4c-0.9-1.9-1.5-4-1.7-6.2C-0.5,11.2,4.6,3.8,12.3,1.4
		c1.7-0.5,3.4-0.8,5.1-1.1c2.4-0.4,4.7-0.4,7.1-0.3c2.3,0.2,4.6,0.6,6.9,1.2c2.8,0.8,5.5,1.9,8.1,3.3c0.2,0.1,0.3,0.3,0.3,0.5
		c0,2.3,0,4.6,0,6.9C39.8,12.1,39.8,12.2,39.8,12.4z M9.5,20.6c0.7,0.2,1.4,0.2,2.1,0.1c3.5-0.4,6.1-3.5,5.7-7.1
		c-0.4-3.5-3.5-6.1-7.1-5.7c-3.2,0.3-5.6,3-5.7,6.2c0,3.4,0,6.8,0,10.2c0,1.5,1,2.9,2.5,3.4c0.4,0.1,0.7,0.2,1.1,0.2v-5.5
		c0-2.7,0-5.5,0-8.2c0-1.1,0.7-2.1,1.7-2.5c1-0.5,2.2-0.3,3,0.5c1.1,0.9,1.3,2.5,0.5,3.7c-0.8,1.2-2.3,1.7-3.6,1
		c-0.1,0-0.1,0-0.2-0.1V20.6z"/>
	<path id="Контур_27" d="M46,13.4c0,1.2,0,2.3,0,3.4c0,0.2-0.1,0.2-0.2,0.2c-0.8,0-1.7,0-2.5,0c-0.2,0-0.3,0-0.3,0.3
		c0,1.6,0,3.2,0,4.8v0.3h-6.4v-5c0-0.4,0-0.3-0.3-0.3c-0.8,0-1.6,0-2.5,0c-0.2,0-0.3,0-0.3-0.2c0-1,0-2.1,0-3.1
		c0-0.2,0.1-0.2,0.2-0.2c4,0,8,0,11.9,0L46,13.4z"/>
</g>
</svg>
